%YAML 1.1
%TAG !u! tag:unity3d.com,2011:
--- !u!114 &11400000
MonoBehaviour:
  m_ObjectHideFlags: 0
  m_PrefabParentObject: {fileID: 0}
  m_PrefabInternal: {fileID: 0}
  m_GameObject: {fileID: 0}
  m_Enabled: 1
  m_EditorHideFlags: 0
  m_Script: {fileID: 11500000, guid: f0d98f5be51926f46bc797504da5ad22, type: 3}
  m_Name: Rails
  m_EditorClassIdentifier: 
  AtlasTexture: {fileID: 2800000, guid: c6e684595bb4bdc4db812688f15b9f64, type: 3}
  TilePxSize: {x: 32, y: 32}
  SliceOffset: {x: 0, y: 0}
  SlicePadding: {x: 0, y: 0}
  BackgroundColor: {r: 0.8039216, g: 0.8039216, b: 0.8039216, a: 0.8039216}
  VisualTileSize: {x: 32, y: 32}
  VisualTilePadding: 1
  TileRowLength: 16
  m_tileViews: []
  m_tilesetWidth: 16
  m_tilesetHeight: 16
  m_brushes: []
  m_tiles:
  - uv:
      serializedVersion: 2
      x: 0
      y: 0.9375
      width: 0.0625
      height: 0.0625
    collData:
      vertices: []
      type: 0
    paramContainer:
      m_paramList: []
    prefabData:
      prefab: {fileID: 1878701009311330, guid: f1e6969447e0a427c9568e93a42d8a62, type: 2}
      offset: {x: 0, y: 0, z: 0}
      offsetMode: 0
      showTileWithPrefab: 0
      showPrefabPreviewInTilePalette: 1
    autilingGroup: 0
  - uv:
      serializedVersion: 2
      x: 0.0625
      y: 0.9375
      width: 0.0625
      height: 0.0625
    collData:
      vertices: []
      type: 0
    paramContainer:
      m_paramList: []
    prefabData:
      prefab: {fileID: 1972443086652772, guid: 68064ecd570e54637b4be48ea3de8555, type: 2}
      offset: {x: 0, y: 0, z: 0}
      offsetMode: 0
      showTileWithPrefab: 0
      showPrefabPreviewInTilePalette: 1
    autilingGroup: 0
  - uv:
      serializedVersion: 2
      x: 0.125
      y: 0.9375
      width: 0.0625
      height: 0.0625
    collData:
      vertices: []
      type: 0
    paramContainer:
      m_paramList: []
    prefabData:
      prefab: {fileID: 1173932255592956, guid: 6548697a16d5d4343963527f61cb5a64, type: 2}
      offset: {x: 0, y: 0, z: 0}
      offsetMode: 0
      showTileWithPrefab: 0
      showPrefabPreviewInTilePalette: 0
    autilingGroup: 0
  - uv:
      serializedVersion: 2
      x: 0.1875
      y: 0.9375
      width: 0.0625
      height: 0.0625
    collData:
      vertices: []
      type: 0
    paramContainer:
      m_paramList: []
    prefabData:
      prefab: {fileID: 1330097447958398, guid: 44c1449bf876244bd93820fc29d13ebe, type: 2}
      offset: {x: 0, y: 0, z: 0}
      offsetMode: 0
      showTileWithPrefab: 0
      showPrefabPreviewInTilePalette: 0
    autilingGroup: 0
  - uv:
      serializedVersion: 2
      x: 0.25
      y: 0.9375
      width: 0.0625
      height: 0.0625
    collData:
      vertices: []
      type: 0
    paramContainer:
      m_paramList: []
    prefabData:
      prefab: {fileID: 1194018526043850, guid: 46a533a14dba74aff9a92add9eff49cf, type: 2}
      offset: {x: 0, y: 0, z: 0}
      offsetMode: 0
      showTileWithPrefab: 0
      showPrefabPreviewInTilePalette: 1
    autilingGroup: 0
  - uv:
      serializedVersion: 2
      x: 0.3125
      y: 0.9375
      width: 0.0625
      height: 0.0625
    collData:
      vertices: []
      type: 0
    paramContainer:
      m_paramList: []
    prefabData:
      prefab: {fileID: 1972443086652772, guid: 68064ecd570e54637b4be48ea3de8555, type: 2}
      offset: {x: 0, y: 0, z: 0}
      offsetMode: 0
      showTileWithPrefab: 0
      showPrefabPreviewInTilePalette: 1
    autilingGroup: 0
  - uv:
      serializedVersion: 2
      x: 0.375
      y: 0.9375
      width: 0.0625
      height: 0.0625
    collData:
      vertices: []
      type: 0
    paramContainer:
      m_paramList: []
    prefabData:
      prefab: {fileID: 0}
      offset: {x: 0, y: 0, z: 0}
      offsetMode: 0
      showTileWithPrefab: 0
      showPrefabPreviewInTilePalette: 0
    autilingGroup: 0
  - uv:
      serializedVersion: 2
      x: 0.4375
      y: 0.9375
      width: 0.0625
      height: 0.0625
    collData:
      vertices: []
      type: 0
    paramContainer:
      m_paramList: []
    prefabData:
      prefab: {fileID: 0}
      offset: {x: 0, y: 0, z: 0}
      offsetMode: 0
      showTileWithPrefab: 0
      showPrefabPreviewInTilePalette: 0
    autilingGroup: 0
  - uv:
      serializedVersion: 2
      x: 0.5
      y: 0.9375
      width: 0.0625
      height: 0.0625
    collData:
      vertices: []
      type: 0
    paramContainer:
      m_paramList: []
    prefabData:
      prefab: {fileID: 0}
      offset: {x: 0, y: 0, z: 0}
      offsetMode: 0
      showTileWithPrefab: 0
      showPrefabPreviewInTilePalette: 0
    autilingGroup: 0
  - uv:
      serializedVersion: 2
      x: 0.5625
      y: 0.9375
      width: 0.0625
      height: 0.0625
    collData:
      vertices: []
      type: 0
    paramContainer:
      m_paramList: []
    prefabData:
      prefab: {fileID: 0}
      offset: {x: 0, y: 0, z: 0}
      offsetMode: 0
      showTileWithPrefab: 0
      showPrefabPreviewInTilePalette: 0
    autilingGroup: 0
  - uv:
      serializedVersion: 2
      x: 0.625
      y: 0.9375
      width: 0.0625
      height: 0.0625
    collData:
      vertices: []
      type: 0
    paramContainer:
      m_paramList: []
    prefabData:
      prefab: {fileID: 1194018526043850, guid: 46a533a14dba74aff9a92add9eff49cf, type: 2}
      offset: {x: 0, y: 0, z: 0}
      offsetMode: 0
      showTileWithPrefab: 0
      showPrefabPreviewInTilePalette: 1
    autilingGroup: 0
  - uv:
      serializedVersion: 2
      x: 0.6875
      y: 0.9375
      width: 0.0625
      height: 0.0625
    collData:
      vertices: []
      type: 0
    paramContainer:
      m_paramList: []
    prefabData:
      prefab: {fileID: 0}
      offset: {x: 0, y: 0, z: 0}
      offsetMode: 0
      showTileWithPrefab: 0
      showPrefabPreviewInTilePalette: 0
    autilingGroup: 0
  - uv:
      serializedVersion: 2
      x: 0.75
      y: 0.9375
      width: 0.0625
      height: 0.0625
    collData:
      vertices: []
      type: 0
    paramContainer:
      m_paramList: []
    prefabData:
      prefab: {fileID: 0}
      offset: {x: 0, y: 0, z: 0}
      offsetMode: 0
      showTileWithPrefab: 0
      showPrefabPreviewInTilePalette: 0
    autilingGroup: 0
  - uv:
      serializedVersion: 2
      x: 0.8125
      y: 0.9375
      width: 0.0625
      height: 0.0625
    collData:
      vertices: []
      type: 0
    paramContainer:
      m_paramList: []
    prefabData:
      prefab: {fileID: 0}
      offset: {x: 0, y: 0, z: 0}
      offsetMode: 0
      showTileWithPrefab: 0
      showPrefabPreviewInTilePalette: 0
    autilingGroup: 0
  - uv:
      serializedVersion: 2
      x: 0.875
      y: 0.9375
      width: 0.0625
      height: 0.0625
    collData:
      vertices: []
      type: 0
    paramContainer:
      m_paramList: []
    prefabData:
      prefab: {fileID: 0}
      offset: {x: 0, y: 0, z: 0}
      offsetMode: 0
      showTileWithPrefab: 0
      showPrefabPreviewInTilePalette: 0
    autilingGroup: 0
  - uv:
      serializedVersion: 2
      x: 0.9375
      y: 0.9375
      width: 0.0625
      height: 0.0625
    collData:
      vertices: []
      type: 0
    paramContainer:
      m_paramList: []
    prefabData:
      prefab: {fileID: 0}
      offset: {x: 0, y: 0, z: 0}
      offsetMode: 0
      showTileWithPrefab: 0
      showPrefabPreviewInTilePalette: 0
    autilingGroup: 0
  - uv:
      serializedVersion: 2
      x: 0
      y: 0.875
      width: 0.0625
      height: 0.0625
    collData:
      vertices: []
      type: 0
    paramContainer:
      m_paramList: []
    prefabData:
      prefab: {fileID: 1669894389610288, guid: 7bb7a23beaf7243f7abc9117a5902d54, type: 2}
      offset: {x: 0, y: 0, z: 0}
      offsetMode: 0
      showTileWithPrefab: 0
      showPrefabPreviewInTilePalette: 1
    autilingGroup: 0
  - uv:
      serializedVersion: 2
      x: 0.0625
      y: 0.875
      width: 0.0625
      height: 0.0625
    collData:
      vertices: []
      type: 0
    paramContainer:
      m_paramList: []
    prefabData:
      prefab: {fileID: 1209737620099504, guid: c6850933983934358ba0b5c78b06ef1e, type: 2}
      offset: {x: 0, y: 0, z: 0}
      offsetMode: 0
      showTileWithPrefab: 0
      showPrefabPreviewInTilePalette: 1
    autilingGroup: 0
  - uv:
      serializedVersion: 2
      x: 0.125
      y: 0.875
      width: 0.0625
      height: 0.0625
    collData:
      vertices: []
      type: 0
    paramContainer:
      m_paramList: []
    prefabData:
      prefab: {fileID: 1132384306580496, guid: 68ab3e0cfa2b64238b31c0047f6b7c88, type: 2}
      offset: {x: 0, y: 0, z: 0}
      offsetMode: 0
      showTileWithPrefab: 0
      showPrefabPreviewInTilePalette: 1
    autilingGroup: 0
  - uv:
      serializedVersion: 2
      x: 0.1875
      y: 0.875
      width: 0.0625
      height: 0.0625
    collData:
      vertices: []
      type: 0
    paramContainer:
      m_paramList: []
    prefabData:
      prefab: {fileID: 1409588243864872, guid: 1c876285819254c6c9766f27841b2fd2, type: 2}
      offset: {x: 0, y: 0, z: 0}
      offsetMode: 0
      showTileWithPrefab: 0
      showPrefabPreviewInTilePalette: 1
    autilingGroup: 0
  - uv:
      serializedVersion: 2
      x: 0.25
      y: 0.875
      width: 0.0625
      height: 0.0625
    collData:
      vertices: []
      type: 0
    paramContainer:
      m_paramList: []
    prefabData:
      prefab: {fileID: 1249135465621398, guid: 3016ad9ca76d349a3892983c1212de2d, type: 2}
      offset: {x: 0, y: 0, z: 0}
      offsetMode: 0
      showTileWithPrefab: 0
      showPrefabPreviewInTilePalette: 1
    autilingGroup: 0
  - uv:
      serializedVersion: 2
      x: 0.3125
      y: 0.875
      width: 0.0625
      height: 0.0625
    collData:
      vertices: []
      type: 0
    paramContainer:
      m_paramList: []
    prefabData:
      prefab: {fileID: 1186237491606912, guid: f4ffe1dbb321e4927902124cccb87e58, type: 2}
      offset: {x: 0, y: 0, z: 0}
      offsetMode: 0
      showTileWithPrefab: 0
      showPrefabPreviewInTilePalette: 1
    autilingGroup: 0
  - uv:
      serializedVersion: 2
      x: 0.375
      y: 0.875
      width: 0.0625
      height: 0.0625
    collData:
      vertices: []
      type: 0
    paramContainer:
      m_paramList: []
    prefabData:
      prefab: {fileID: 1242466147895410, guid: 2220a1303f7124cb5b8229bf380f83f6, type: 2}
      offset: {x: 0, y: 0, z: 0}
      offsetMode: 0
      showTileWithPrefab: 0
      showPrefabPreviewInTilePalette: 1
    autilingGroup: 0
  - uv:
      serializedVersion: 2
      x: 0.4375
      y: 0.875
      width: 0.0625
      height: 0.0625
    collData:
      vertices: []
      type: 0
    paramContainer:
      m_paramList: []
    prefabData:
      prefab: {fileID: 0}
      offset: {x: 0, y: 0, z: 0}
      offsetMode: 0
      showTileWithPrefab: 0
      showPrefabPreviewInTilePalette: 0
    autilingGroup: 0
  - uv:
      serializedVersion: 2
      x: 0.5
      y: 0.875
      width: 0.0625
      height: 0.0625
    collData:
      vertices: []
      type: 0
    paramContainer:
      m_paramList: []
    prefabData:
      prefab: {fileID: 0}
      offset: {x: 0, y: 0, z: 0}
      offsetMode: 0
      showTileWithPrefab: 0
      showPrefabPreviewInTilePalette: 0
    autilingGroup: 0
  - uv:
      serializedVersion: 2
      x: 0.5625
      y: 0.875
      width: 0.0625
      height: 0.0625
    collData:
      vertices: []
      type: 0
    paramContainer:
      m_paramList: []
    prefabData:
      prefab: {fileID: 1833271373967930, guid: bae9425023323498aba275c9fe03cef4, type: 2}
      offset: {x: 0, y: 0, z: 0}
      offsetMode: 0
      showTileWithPrefab: 0
      showPrefabPreviewInTilePalette: 1
    autilingGroup: 0
  - uv:
      serializedVersion: 2
      x: 0.625
      y: 0.875
      width: 0.0625
      height: 0.0625
    collData:
      vertices: []
      type: 0
    paramContainer:
      m_paramList: []
    prefabData:
      prefab: {fileID: 1931581532445522, guid: 48b81211f7c784c0ea43c0754ceb386c, type: 2}
      offset: {x: 0, y: 0, z: 0}
      offsetMode: 0
      showTileWithPrefab: 0
      showPrefabPreviewInTilePalette: 1
    autilingGroup: 0
  - uv:
      serializedVersion: 2
      x: 0.6875
      y: 0.875
      width: 0.0625
      height: 0.0625
    collData:
      vertices: []
      type: 0
    paramContainer:
      m_paramList: []
    prefabData:
      prefab: {fileID: 0}
      offset: {x: 0, y: 0, z: 0}
      offsetMode: 0
      showTileWithPrefab: 0
      showPrefabPreviewInTilePalette: 0
    autilingGroup: 0
  - uv:
      serializedVersion: 2
      x: 0.75
      y: 0.875
      width: 0.0625
      height: 0.0625
    collData:
      vertices: []
      type: 0
    paramContainer:
      m_paramList: []
    prefabData:
      prefab: {fileID: 0}
      offset: {x: 0, y: 0, z: 0}
      offsetMode: 0
      showTileWithPrefab: 0
      showPrefabPreviewInTilePalette: 0
    autilingGroup: 0
  - uv:
      serializedVersion: 2
      x: 0.8125
      y: 0.875
      width: 0.0625
      height: 0.0625
    collData:
      vertices: []
      type: 0
    paramContainer:
      m_paramList: []
    prefabData:
      prefab: {fileID: 0}
      offset: {x: 0, y: 0, z: 0}
      offsetMode: 0
      showTileWithPrefab: 0
      showPrefabPreviewInTilePalette: 0
    autilingGroup: 0
  - uv:
      serializedVersion: 2
      x: 0.875
      y: 0.875
      width: 0.0625
      height: 0.0625
    collData:
      vertices: []
      type: 0
    paramContainer:
      m_paramList: []
    prefabData:
      prefab: {fileID: 0}
      offset: {x: 0, y: 0, z: 0}
      offsetMode: 0
      showTileWithPrefab: 0
      showPrefabPreviewInTilePalette: 0
    autilingGroup: 0
  - uv:
      serializedVersion: 2
      x: 0.9375
      y: 0.875
      width: 0.0625
      height: 0.0625
    collData:
      vertices: []
      type: 0
    paramContainer:
      m_paramList: []
    prefabData:
      prefab: {fileID: 0}
      offset: {x: 0, y: 0, z: 0}
      offsetMode: 0
      showTileWithPrefab: 0
      showPrefabPreviewInTilePalette: 0
    autilingGroup: 0
  - uv:
      serializedVersion: 2
      x: 0
      y: 0.8125
      width: 0.0625
      height: 0.0625
    collData:
      vertices: []
      type: 0
    paramContainer:
      m_paramList: []
    prefabData:
      prefab: {fileID: 1531185028818148, guid: 44241278c561d4b84bbc4ade1c1796f2, type: 2}
      offset: {x: 0, y: 0, z: 0}
      offsetMode: 0
      showTileWithPrefab: 0
      showPrefabPreviewInTilePalette: 1
    autilingGroup: 0
  - uv:
      serializedVersion: 2
      x: 0.0625
      y: 0.8125
      width: 0.0625
      height: 0.0625
    collData:
      vertices: []
      type: 0
    paramContainer:
      m_paramList: []
    prefabData:
      prefab: {fileID: 0}
      offset: {x: 0, y: 0, z: 0}
      offsetMode: 0
      showTileWithPrefab: 0
      showPrefabPreviewInTilePalette: 0
    autilingGroup: 0
  - uv:
      serializedVersion: 2
      x: 0.125
      y: 0.8125
      width: 0.0625
      height: 0.0625
    collData:
      vertices: []
      type: 0
    paramContainer:
      m_paramList: []
    prefabData:
      prefab: {fileID: 1308974096863092, guid: c804fe63135134b6ea01337faf19d870, type: 2}
      offset: {x: 0, y: 0, z: 0}
      offsetMode: 0
      showTileWithPrefab: 0
      showPrefabPreviewInTilePalette: 1
    autilingGroup: 0
  - uv:
      serializedVersion: 2
      x: 0.1875
      y: 0.8125
      width: 0.0625
      height: 0.0625
    collData:
      vertices: []
      type: 0
    paramContainer:
      m_paramList: []
    prefabData:
      prefab: {fileID: 1292975698455130, guid: adba51ed70edc4e4bb6a06bd7f4d2658, type: 2}
      offset: {x: 0, y: 0, z: 0}
      offsetMode: 0
      showTileWithPrefab: 0
      showPrefabPreviewInTilePalette: 1
    autilingGroup: 0
  - uv:
      serializedVersion: 2
      x: 0.25
      y: 0.8125
      width: 0.0625
      height: 0.0625
    collData:
      vertices: []
      type: 0
    paramContainer:
      m_paramList: []
    prefabData:
      prefab: {fileID: 0}
      offset: {x: 0, y: 0, z: 0}
      offsetMode: 0
      showTileWithPrefab: 0
      showPrefabPreviewInTilePalette: 0
    autilingGroup: 0
  - uv:
      serializedVersion: 2
      x: 0.3125
      y: 0.8125
      width: 0.0625
      height: 0.0625
    collData:
      vertices: []
      type: 0
    paramContainer:
      m_paramList: []
    prefabData:
      prefab: {fileID: 0}
      offset: {x: 0, y: 0, z: 0}
      offsetMode: 0
      showTileWithPrefab: 0
      showPrefabPreviewInTilePalette: 0
    autilingGroup: 0
  - uv:
      serializedVersion: 2
      x: 0.375
      y: 0.8125
      width: 0.0625
      height: 0.0625
    collData:
      vertices: []
      type: 0
    paramContainer:
      m_paramList: []
    prefabData:
      prefab: {fileID: 1209737620099504, guid: c6850933983934358ba0b5c78b06ef1e, type: 2}
      offset: {x: 0, y: 0, z: 0}
      offsetMode: 0
      showTileWithPrefab: 0
      showPrefabPreviewInTilePalette: 1
    autilingGroup: 0
  - uv:
      serializedVersion: 2
      x: 0.4375
      y: 0.8125
      width: 0.0625
      height: 0.0625
    collData:
      vertices: []
      type: 0
    paramContainer:
      m_paramList: []
    prefabData:
      prefab: {fileID: 1132384306580496, guid: 68ab3e0cfa2b64238b31c0047f6b7c88, type: 2}
      offset: {x: 0, y: 0, z: 0}
      offsetMode: 0
      showTileWithPrefab: 0
      showPrefabPreviewInTilePalette: 1
    autilingGroup: 0
  - uv:
      serializedVersion: 2
      x: 0.5
      y: 0.8125
      width: 0.0625
      height: 0.0625
    collData:
      vertices: []
      type: 0
    paramContainer:
      m_paramList: []
    prefabData:
      prefab: {fileID: 1409588243864872, guid: 1c876285819254c6c9766f27841b2fd2, type: 2}
      offset: {x: 0, y: 0, z: 0}
      offsetMode: 0
      showTileWithPrefab: 0
      showPrefabPreviewInTilePalette: 1
    autilingGroup: 0
  - uv:
      serializedVersion: 2
      x: 0.5625
      y: 0.8125
      width: 0.0625
      height: 0.0625
    collData:
      vertices: []
      type: 0
    paramContainer:
      m_paramList: []
    prefabData:
      prefab: {fileID: 1249135465621398, guid: 3016ad9ca76d349a3892983c1212de2d, type: 2}
      offset: {x: 0, y: 0, z: 0}
      offsetMode: 0
      showTileWithPrefab: 0
      showPrefabPreviewInTilePalette: 1
    autilingGroup: 0
  - uv:
      serializedVersion: 2
      x: 0.625
      y: 0.8125
      width: 0.0625
      height: 0.0625
    collData:
      vertices: []
      type: 0
    paramContainer:
      m_paramList: []
    prefabData:
      prefab: {fileID: 0}
      offset: {x: 0, y: 0, z: 0}
      offsetMode: 0
      showTileWithPrefab: 0
      showPrefabPreviewInTilePalette: 0
    autilingGroup: 0
  - uv:
      serializedVersion: 2
      x: 0.6875
      y: 0.8125
      width: 0.0625
      height: 0.0625
    collData:
      vertices: []
      type: 0
    paramContainer:
      m_paramList: []
    prefabData:
      prefab: {fileID: 0}
      offset: {x: 0, y: 0, z: 0}
      offsetMode: 0
      showTileWithPrefab: 0
      showPrefabPreviewInTilePalette: 0
    autilingGroup: 0
  - uv:
      serializedVersion: 2
      x: 0.75
      y: 0.8125
      width: 0.0625
      height: 0.0625
    collData:
      vertices: []
      type: 0
    paramContainer:
      m_paramList: []
    prefabData:
      prefab: {fileID: 0}
      offset: {x: 0, y: 0, z: 0}
      offsetMode: 0
      showTileWithPrefab: 0
      showPrefabPreviewInTilePalette: 0
    autilingGroup: 0
  - uv:
      serializedVersion: 2
      x: 0.8125
      y: 0.8125
      width: 0.0625
      height: 0.0625
    collData:
      vertices: []
      type: 0
    paramContainer:
      m_paramList: []
    prefabData:
      prefab: {fileID: 0}
      offset: {x: 0, y: 0, z: 0}
      offsetMode: 0
      showTileWithPrefab: 0
      showPrefabPreviewInTilePalette: 0
    autilingGroup: 0
  - uv:
      serializedVersion: 2
      x: 0.875
      y: 0.8125
      width: 0.0625
      height: 0.0625
    collData:
      vertices: []
      type: 0
    paramContainer:
      m_paramList: []
    prefabData:
      prefab: {fileID: 0}
      offset: {x: 0, y: 0, z: 0}
      offsetMode: 0
      showTileWithPrefab: 0
      showPrefabPreviewInTilePalette: 0
    autilingGroup: 0
  - uv:
      serializedVersion: 2
      x: 0.9375
      y: 0.8125
      width: 0.0625
      height: 0.0625
    collData:
      vertices: []
      type: 0
    paramContainer:
      m_paramList: []
    prefabData:
      prefab: {fileID: 0}
      offset: {x: 0, y: 0, z: 0}
      offsetMode: 0
      showTileWithPrefab: 0
      showPrefabPreviewInTilePalette: 0
    autilingGroup: 0
  - uv:
      serializedVersion: 2
      x: 0
      y: 0.75
      width: 0.0625
      height: 0.0625
    collData:
      vertices: []
      type: 0
    paramContainer:
      m_paramList: []
    prefabData:
      prefab: {fileID: 0}
      offset: {x: 0, y: 0, z: 0}
      offsetMode: 0
      showTileWithPrefab: 0
      showPrefabPreviewInTilePalette: 0
    autilingGroup: 0
  - uv:
      serializedVersion: 2
      x: 0.0625
      y: 0.75
      width: 0.0625
      height: 0.0625
    collData:
      vertices: []
      type: 0
    paramContainer:
      m_paramList: []
    prefabData:
      prefab: {fileID: 0}
      offset: {x: 0, y: 0, z: 0}
      offsetMode: 0
      showTileWithPrefab: 0
      showPrefabPreviewInTilePalette: 0
    autilingGroup: 0
  - uv:
      serializedVersion: 2
      x: 0.125
      y: 0.75
      width: 0.0625
      height: 0.0625
    collData:
      vertices: []
      type: 0
    paramContainer:
      m_paramList: []
    prefabData:
      prefab: {fileID: 0}
      offset: {x: 0, y: 0, z: 0}
      offsetMode: 0
      showTileWithPrefab: 0
      showPrefabPreviewInTilePalette: 0
    autilingGroup: 0
  - uv:
      serializedVersion: 2
      x: 0.1875
      y: 0.75
      width: 0.0625
      height: 0.0625
    collData:
      vertices: []
      type: 0
    paramContainer:
      m_paramList: []
    prefabData:
      prefab: {fileID: 0}
      offset: {x: 0, y: 0, z: 0}
      offsetMode: 0
      showTileWithPrefab: 0
      showPrefabPreviewInTilePalette: 0
    autilingGroup: 0
  - uv:
      serializedVersion: 2
      x: 0.25
      y: 0.75
      width: 0.0625
      height: 0.0625
    collData:
      vertices: []
      type: 0
    paramContainer:
      m_paramList: []
    prefabData:
      prefab: {fileID: 0}
      offset: {x: 0, y: 0, z: 0}
      offsetMode: 0
      showTileWithPrefab: 0
      showPrefabPreviewInTilePalette: 0
    autilingGroup: 0
  - uv:
      serializedVersion: 2
      x: 0.3125
      y: 0.75
      width: 0.0625
      height: 0.0625
    collData:
      vertices: []
      type: 0
    paramContainer:
      m_paramList: []
    prefabData:
      prefab: {fileID: 0}
      offset: {x: 0, y: 0, z: 0}
      offsetMode: 0
      showTileWithPrefab: 0
      showPrefabPreviewInTilePalette: 0
    autilingGroup: 0
  - uv:
      serializedVersion: 2
      x: 0.375
      y: 0.75
      width: 0.0625
      height: 0.0625
    collData:
      vertices: []
      type: 0
    paramContainer:
      m_paramList: []
    prefabData:
      prefab: {fileID: 0}
      offset: {x: 0, y: 0, z: 0}
      offsetMode: 0
      showTileWithPrefab: 0
      showPrefabPreviewInTilePalette: 0
    autilingGroup: 0
  - uv:
      serializedVersion: 2
      x: 0.4375
      y: 0.75
      width: 0.0625
      height: 0.0625
    collData:
      vertices: []
      type: 0
    paramContainer:
      m_paramList: []
    prefabData:
      prefab: {fileID: 1308974096863092, guid: c804fe63135134b6ea01337faf19d870, type: 2}
      offset: {x: 0, y: 0, z: 0}
      offsetMode: 0
      showTileWithPrefab: 0
      showPrefabPreviewInTilePalette: 1
    autilingGroup: 0
  - uv:
      serializedVersion: 2
      x: 0.5
      y: 0.75
      width: 0.0625
      height: 0.0625
    collData:
      vertices: []
      type: 0
    paramContainer:
      m_paramList: []
    prefabData:
      prefab: {fileID: 1292975698455130, guid: adba51ed70edc4e4bb6a06bd7f4d2658, type: 2}
      offset: {x: 0, y: 0, z: 0}
      offsetMode: 0
      showTileWithPrefab: 0
      showPrefabPreviewInTilePalette: 1
    autilingGroup: 0
  - uv:
      serializedVersion: 2
      x: 0.5625
      y: 0.75
      width: 0.0625
      height: 0.0625
    collData:
      vertices: []
      type: 0
    paramContainer:
      m_paramList: []
    prefabData:
      prefab: {fileID: 0}
      offset: {x: 0, y: 0, z: 0}
      offsetMode: 0
      showTileWithPrefab: 0
      showPrefabPreviewInTilePalette: 0
    autilingGroup: 0
  - uv:
      serializedVersion: 2
      x: 0.625
      y: 0.75
      width: 0.0625
      height: 0.0625
    collData:
      vertices: []
      type: 0
    paramContainer:
      m_paramList: []
    prefabData:
      prefab: {fileID: 0}
      offset: {x: 0, y: 0, z: 0}
      offsetMode: 0
      showTileWithPrefab: 0
      showPrefabPreviewInTilePalette: 0
    autilingGroup: 0
  - uv:
      serializedVersion: 2
      x: 0.6875
      y: 0.75
      width: 0.0625
      height: 0.0625
    collData:
      vertices: []
      type: 0
    paramContainer:
      m_paramList: []
    prefabData:
      prefab: {fileID: 0}
      offset: {x: 0, y: 0, z: 0}
      offsetMode: 0
      showTileWithPrefab: 0
      showPrefabPreviewInTilePalette: 0
    autilingGroup: 0
  - uv:
      serializedVersion: 2
      x: 0.75
      y: 0.75
      width: 0.0625
      height: 0.0625
    collData:
      vertices: []
      type: 0
    paramContainer:
      m_paramList: []
    prefabData:
      prefab: {fileID: 0}
      offset: {x: 0, y: 0, z: 0}
      offsetMode: 0
      showTileWithPrefab: 0
      showPrefabPreviewInTilePalette: 0
    autilingGroup: 0
  - uv:
      serializedVersion: 2
      x: 0.8125
      y: 0.75
      width: 0.0625
      height: 0.0625
    collData:
      vertices: []
      type: 0
    paramContainer:
      m_paramList: []
    prefabData:
      prefab: {fileID: 0}
      offset: {x: 0, y: 0, z: 0}
      offsetMode: 0
      showTileWithPrefab: 0
      showPrefabPreviewInTilePalette: 0
    autilingGroup: 0
  - uv:
      serializedVersion: 2
      x: 0.875
      y: 0.75
      width: 0.0625
      height: 0.0625
    collData:
      vertices: []
      type: 0
    paramContainer:
      m_paramList: []
    prefabData:
      prefab: {fileID: 0}
      offset: {x: 0, y: 0, z: 0}
      offsetMode: 0
      showTileWithPrefab: 0
      showPrefabPreviewInTilePalette: 0
    autilingGroup: 0
  - uv:
      serializedVersion: 2
      x: 0.9375
      y: 0.75
      width: 0.0625
      height: 0.0625
    collData:
      vertices: []
      type: 0
    paramContainer:
      m_paramList: []
    prefabData:
      prefab: {fileID: 0}
      offset: {x: 0, y: 0, z: 0}
      offsetMode: 0
      showTileWithPrefab: 0
      showPrefabPreviewInTilePalette: 0
    autilingGroup: 0
  - uv:
      serializedVersion: 2
      x: 0
      y: 0.6875
      width: 0.0625
      height: 0.0625
    collData:
      vertices: []
      type: 0
    paramContainer:
      m_paramList: []
    prefabData:
      prefab: {fileID: 0}
      offset: {x: 0, y: 0, z: 0}
      offsetMode: 0
      showTileWithPrefab: 0
      showPrefabPreviewInTilePalette: 0
    autilingGroup: 0
  - uv:
      serializedVersion: 2
      x: 0.0625
      y: 0.6875
      width: 0.0625
      height: 0.0625
    collData:
      vertices: []
      type: 0
    paramContainer:
      m_paramList: []
    prefabData:
      prefab: {fileID: 0}
      offset: {x: 0, y: 0, z: 0}
      offsetMode: 0
      showTileWithPrefab: 0
      showPrefabPreviewInTilePalette: 0
    autilingGroup: 0
  - uv:
      serializedVersion: 2
      x: 0.125
      y: 0.6875
      width: 0.0625
      height: 0.0625
    collData:
      vertices: []
      type: 0
    paramContainer:
      m_paramList: []
    prefabData:
      prefab: {fileID: 0}
      offset: {x: 0, y: 0, z: 0}
      offsetMode: 0
      showTileWithPrefab: 0
      showPrefabPreviewInTilePalette: 0
    autilingGroup: 0
  - uv:
      serializedVersion: 2
      x: 0.1875
      y: 0.6875
      width: 0.0625
      height: 0.0625
    collData:
      vertices: []
      type: 0
    paramContainer:
      m_paramList: []
    prefabData:
      prefab: {fileID: 0}
      offset: {x: 0, y: 0, z: 0}
      offsetMode: 0
      showTileWithPrefab: 0
      showPrefabPreviewInTilePalette: 0
    autilingGroup: 0
  - uv:
      serializedVersion: 2
      x: 0.25
      y: 0.6875
      width: 0.0625
      height: 0.0625
    collData:
      vertices: []
      type: 0
    paramContainer:
      m_paramList: []
    prefabData:
      prefab: {fileID: 0}
      offset: {x: 0, y: 0, z: 0}
      offsetMode: 0
      showTileWithPrefab: 0
      showPrefabPreviewInTilePalette: 0
    autilingGroup: 0
  - uv:
      serializedVersion: 2
      x: 0.3125
      y: 0.6875
      width: 0.0625
      height: 0.0625
    collData:
      vertices: []
      type: 0
    paramContainer:
      m_paramList: []
    prefabData:
      prefab: {fileID: 0}
      offset: {x: 0, y: 0, z: 0}
      offsetMode: 0
      showTileWithPrefab: 0
      showPrefabPreviewInTilePalette: 0
    autilingGroup: 0
  - uv:
      serializedVersion: 2
      x: 0.375
      y: 0.6875
      width: 0.0625
      height: 0.0625
    collData:
      vertices: []
      type: 0
    paramContainer:
      m_paramList: []
    prefabData:
      prefab: {fileID: 0}
      offset: {x: 0, y: 0, z: 0}
      offsetMode: 0
      showTileWithPrefab: 0
      showPrefabPreviewInTilePalette: 0
    autilingGroup: 0
  - uv:
      serializedVersion: 2
      x: 0.4375
      y: 0.6875
      width: 0.0625
      height: 0.0625
    collData:
      vertices: []
      type: 0
    paramContainer:
      m_paramList: []
    prefabData:
      prefab: {fileID: 0}
      offset: {x: 0, y: 0, z: 0}
      offsetMode: 0
      showTileWithPrefab: 0
      showPrefabPreviewInTilePalette: 0
    autilingGroup: 0
  - uv:
      serializedVersion: 2
      x: 0.5
      y: 0.6875
      width: 0.0625
      height: 0.0625
    collData:
      vertices: []
      type: 0
    paramContainer:
      m_paramList: []
    prefabData:
      prefab: {fileID: 0}
      offset: {x: 0, y: 0, z: 0}
      offsetMode: 0
      showTileWithPrefab: 0
      showPrefabPreviewInTilePalette: 0
    autilingGroup: 0
  - uv:
      serializedVersion: 2
      x: 0.5625
      y: 0.6875
      width: 0.0625
      height: 0.0625
    collData:
      vertices: []
      type: 0
    paramContainer:
      m_paramList: []
    prefabData:
      prefab: {fileID: 0}
      offset: {x: 0, y: 0, z: 0}
      offsetMode: 0
      showTileWithPrefab: 0
      showPrefabPreviewInTilePalette: 0
    autilingGroup: 0
  - uv:
      serializedVersion: 2
      x: 0.625
      y: 0.6875
      width: 0.0625
      height: 0.0625
    collData:
      vertices: []
      type: 0
    paramContainer:
      m_paramList: []
    prefabData:
      prefab: {fileID: 0}
      offset: {x: 0, y: 0, z: 0}
      offsetMode: 0
      showTileWithPrefab: 0
      showPrefabPreviewInTilePalette: 0
    autilingGroup: 0
  - uv:
      serializedVersion: 2
      x: 0.6875
      y: 0.6875
      width: 0.0625
      height: 0.0625
    collData:
      vertices: []
      type: 0
    paramContainer:
      m_paramList: []
    prefabData:
      prefab: {fileID: 0}
      offset: {x: 0, y: 0, z: 0}
      offsetMode: 0
      showTileWithPrefab: 0
      showPrefabPreviewInTilePalette: 0
    autilingGroup: 0
  - uv:
      serializedVersion: 2
      x: 0.75
      y: 0.6875
      width: 0.0625
      height: 0.0625
    collData:
      vertices: []
      type: 0
    paramContainer:
      m_paramList: []
    prefabData:
      prefab: {fileID: 0}
      offset: {x: 0, y: 0, z: 0}
      offsetMode: 0
      showTileWithPrefab: 0
      showPrefabPreviewInTilePalette: 0
    autilingGroup: 0
  - uv:
      serializedVersion: 2
      x: 0.8125
      y: 0.6875
      width: 0.0625
      height: 0.0625
    collData:
      vertices: []
      type: 0
    paramContainer:
      m_paramList: []
    prefabData:
      prefab: {fileID: 0}
      offset: {x: 0, y: 0, z: 0}
      offsetMode: 0
      showTileWithPrefab: 0
      showPrefabPreviewInTilePalette: 0
    autilingGroup: 0
  - uv:
      serializedVersion: 2
      x: 0.875
      y: 0.6875
      width: 0.0625
      height: 0.0625
    collData:
      vertices: []
      type: 0
    paramContainer:
      m_paramList: []
    prefabData:
      prefab: {fileID: 0}
      offset: {x: 0, y: 0, z: 0}
      offsetMode: 0
      showTileWithPrefab: 0
      showPrefabPreviewInTilePalette: 0
    autilingGroup: 0
  - uv:
      serializedVersion: 2
      x: 0.9375
      y: 0.6875
      width: 0.0625
      height: 0.0625
    collData:
      vertices: []
      type: 0
    paramContainer:
      m_paramList: []
    prefabData:
      prefab: {fileID: 0}
      offset: {x: 0, y: 0, z: 0}
      offsetMode: 0
      showTileWithPrefab: 0
      showPrefabPreviewInTilePalette: 0
    autilingGroup: 0
  - uv:
      serializedVersion: 2
      x: 0
      y: 0.625
      width: 0.0625
      height: 0.0625
    collData:
      vertices: []
      type: 0
    paramContainer:
      m_paramList: []
    prefabData:
      prefab: {fileID: 0}
      offset: {x: 0, y: 0, z: 0}
      offsetMode: 0
      showTileWithPrefab: 0
      showPrefabPreviewInTilePalette: 0
    autilingGroup: 0
  - uv:
      serializedVersion: 2
      x: 0.0625
      y: 0.625
      width: 0.0625
      height: 0.0625
    collData:
      vertices: []
      type: 0
    paramContainer:
      m_paramList: []
    prefabData:
      prefab: {fileID: 0}
      offset: {x: 0, y: 0, z: 0}
      offsetMode: 0
      showTileWithPrefab: 0
      showPrefabPreviewInTilePalette: 0
    autilingGroup: 0
  - uv:
      serializedVersion: 2
      x: 0.125
      y: 0.625
      width: 0.0625
      height: 0.0625
    collData:
      vertices: []
      type: 0
    paramContainer:
      m_paramList: []
    prefabData:
      prefab: {fileID: 0}
      offset: {x: 0, y: 0, z: 0}
      offsetMode: 0
      showTileWithPrefab: 0
      showPrefabPreviewInTilePalette: 0
    autilingGroup: 0
  - uv:
      serializedVersion: 2
      x: 0.1875
      y: 0.625
      width: 0.0625
      height: 0.0625
    collData:
      vertices: []
      type: 0
    paramContainer:
      m_paramList: []
    prefabData:
      prefab: {fileID: 0}
      offset: {x: 0, y: 0, z: 0}
      offsetMode: 0
      showTileWithPrefab: 0
      showPrefabPreviewInTilePalette: 0
    autilingGroup: 0
  - uv:
      serializedVersion: 2
      x: 0.25
      y: 0.625
      width: 0.0625
      height: 0.0625
    collData:
      vertices: []
      type: 0
    paramContainer:
      m_paramList: []
    prefabData:
      prefab: {fileID: 0}
      offset: {x: 0, y: 0, z: 0}
      offsetMode: 0
      showTileWithPrefab: 0
      showPrefabPreviewInTilePalette: 0
    autilingGroup: 0
  - uv:
      serializedVersion: 2
      x: 0.3125
      y: 0.625
      width: 0.0625
      height: 0.0625
    collData:
      vertices: []
      type: 0
    paramContainer:
      m_paramList: []
    prefabData:
      prefab: {fileID: 0}
      offset: {x: 0, y: 0, z: 0}
      offsetMode: 0
      showTileWithPrefab: 0
      showPrefabPreviewInTilePalette: 0
    autilingGroup: 0
  - uv:
      serializedVersion: 2
      x: 0.375
      y: 0.625
      width: 0.0625
      height: 0.0625
    collData:
      vertices: []
      type: 0
    paramContainer:
      m_paramList: []
    prefabData:
      prefab: {fileID: 0}
      offset: {x: 0, y: 0, z: 0}
      offsetMode: 0
      showTileWithPrefab: 0
      showPrefabPreviewInTilePalette: 0
    autilingGroup: 0
  - uv:
      serializedVersion: 2
      x: 0.4375
      y: 0.625
      width: 0.0625
      height: 0.0625
    collData:
      vertices: []
      type: 0
    paramContainer:
      m_paramList: []
    prefabData:
      prefab: {fileID: 0}
      offset: {x: 0, y: 0, z: 0}
      offsetMode: 0
      showTileWithPrefab: 0
      showPrefabPreviewInTilePalette: 0
    autilingGroup: 0
  - uv:
      serializedVersion: 2
      x: 0.5
      y: 0.625
      width: 0.0625
      height: 0.0625
    collData:
      vertices: []
      type: 0
    paramContainer:
      m_paramList: []
    prefabData:
      prefab: {fileID: 0}
      offset: {x: 0, y: 0, z: 0}
      offsetMode: 0
      showTileWithPrefab: 0
      showPrefabPreviewInTilePalette: 0
    autilingGroup: 0
  - uv:
      serializedVersion: 2
      x: 0.5625
      y: 0.625
      width: 0.0625
      height: 0.0625
    collData:
      vertices: []
      type: 0
    paramContainer:
      m_paramList: []
    prefabData:
      prefab: {fileID: 0}
      offset: {x: 0, y: 0, z: 0}
      offsetMode: 0
      showTileWithPrefab: 0
      showPrefabPreviewInTilePalette: 0
    autilingGroup: 0
  - uv:
      serializedVersion: 2
      x: 0.625
      y: 0.625
      width: 0.0625
      height: 0.0625
    collData:
      vertices: []
      type: 0
    paramContainer:
      m_paramList: []
    prefabData:
      prefab: {fileID: 0}
      offset: {x: 0, y: 0, z: 0}
      offsetMode: 0
      showTileWithPrefab: 0
      showPrefabPreviewInTilePalette: 0
    autilingGroup: 0
  - uv:
      serializedVersion: 2
      x: 0.6875
      y: 0.625
      width: 0.0625
      height: 0.0625
    collData:
      vertices: []
      type: 0
    paramContainer:
      m_paramList: []
    prefabData:
      prefab: {fileID: 0}
      offset: {x: 0, y: 0, z: 0}
      offsetMode: 0
      showTileWithPrefab: 0
      showPrefabPreviewInTilePalette: 0
    autilingGroup: 0
  - uv:
      serializedVersion: 2
      x: 0.75
      y: 0.625
      width: 0.0625
      height: 0.0625
    collData:
      vertices: []
      type: 0
    paramContainer:
      m_paramList: []
    prefabData:
      prefab: {fileID: 0}
      offset: {x: 0, y: 0, z: 0}
      offsetMode: 0
      showTileWithPrefab: 0
      showPrefabPreviewInTilePalette: 0
    autilingGroup: 0
  - uv:
      serializedVersion: 2
      x: 0.8125
      y: 0.625
      width: 0.0625
      height: 0.0625
    collData:
      vertices: []
      type: 0
    paramContainer:
      m_paramList: []
    prefabData:
      prefab: {fileID: 0}
      offset: {x: 0, y: 0, z: 0}
      offsetMode: 0
      showTileWithPrefab: 0
      showPrefabPreviewInTilePalette: 0
    autilingGroup: 0
  - uv:
      serializedVersion: 2
      x: 0.875
      y: 0.625
      width: 0.0625
      height: 0.0625
    collData:
      vertices: []
      type: 0
    paramContainer:
      m_paramList: []
    prefabData:
      prefab: {fileID: 0}
      offset: {x: 0, y: 0, z: 0}
      offsetMode: 0
      showTileWithPrefab: 0
      showPrefabPreviewInTilePalette: 0
    autilingGroup: 0
  - uv:
      serializedVersion: 2
      x: 0.9375
      y: 0.625
      width: 0.0625
      height: 0.0625
    collData:
      vertices: []
      type: 0
    paramContainer:
      m_paramList: []
    prefabData:
      prefab: {fileID: 0}
      offset: {x: 0, y: 0, z: 0}
      offsetMode: 0
      showTileWithPrefab: 0
      showPrefabPreviewInTilePalette: 0
    autilingGroup: 0
  - uv:
      serializedVersion: 2
      x: 0
      y: 0.5625
      width: 0.0625
      height: 0.0625
    collData:
      vertices: []
      type: 0
    paramContainer:
      m_paramList: []
    prefabData:
      prefab: {fileID: 0}
      offset: {x: 0, y: 0, z: 0}
      offsetMode: 0
      showTileWithPrefab: 0
      showPrefabPreviewInTilePalette: 0
    autilingGroup: 0
  - uv:
      serializedVersion: 2
      x: 0.0625
      y: 0.5625
      width: 0.0625
      height: 0.0625
    collData:
      vertices: []
      type: 0
    paramContainer:
      m_paramList: []
    prefabData:
      prefab: {fileID: 0}
      offset: {x: 0, y: 0, z: 0}
      offsetMode: 0
      showTileWithPrefab: 0
      showPrefabPreviewInTilePalette: 0
    autilingGroup: 0
  - uv:
      serializedVersion: 2
      x: 0.125
      y: 0.5625
      width: 0.0625
      height: 0.0625
    collData:
      vertices: []
      type: 0
    paramContainer:
      m_paramList: []
    prefabData:
      prefab: {fileID: 0}
      offset: {x: 0, y: 0, z: 0}
      offsetMode: 0
      showTileWithPrefab: 0
      showPrefabPreviewInTilePalette: 0
    autilingGroup: 0
  - uv:
      serializedVersion: 2
      x: 0.1875
      y: 0.5625
      width: 0.0625
      height: 0.0625
    collData:
      vertices: []
      type: 0
    paramContainer:
      m_paramList: []
    prefabData:
      prefab: {fileID: 0}
      offset: {x: 0, y: 0, z: 0}
      offsetMode: 0
      showTileWithPrefab: 0
      showPrefabPreviewInTilePalette: 0
    autilingGroup: 0
  - uv:
      serializedVersion: 2
      x: 0.25
      y: 0.5625
      width: 0.0625
      height: 0.0625
    collData:
      vertices: []
      type: 0
    paramContainer:
      m_paramList: []
    prefabData:
      prefab: {fileID: 0}
      offset: {x: 0, y: 0, z: 0}
      offsetMode: 0
      showTileWithPrefab: 0
      showPrefabPreviewInTilePalette: 0
    autilingGroup: 0
  - uv:
      serializedVersion: 2
      x: 0.3125
      y: 0.5625
      width: 0.0625
      height: 0.0625
    collData:
      vertices: []
      type: 0
    paramContainer:
      m_paramList: []
    prefabData:
      prefab: {fileID: 0}
      offset: {x: 0, y: 0, z: 0}
      offsetMode: 0
      showTileWithPrefab: 0
      showPrefabPreviewInTilePalette: 0
    autilingGroup: 0
  - uv:
      serializedVersion: 2
      x: 0.375
      y: 0.5625
      width: 0.0625
      height: 0.0625
    collData:
      vertices: []
      type: 0
    paramContainer:
      m_paramList: []
    prefabData:
      prefab: {fileID: 0}
      offset: {x: 0, y: 0, z: 0}
      offsetMode: 0
      showTileWithPrefab: 0
      showPrefabPreviewInTilePalette: 0
    autilingGroup: 0
  - uv:
      serializedVersion: 2
      x: 0.4375
      y: 0.5625
      width: 0.0625
      height: 0.0625
    collData:
      vertices: []
      type: 0
    paramContainer:
      m_paramList: []
    prefabData:
      prefab: {fileID: 0}
      offset: {x: 0, y: 0, z: 0}
      offsetMode: 0
      showTileWithPrefab: 0
      showPrefabPreviewInTilePalette: 0
    autilingGroup: 0
  - uv:
      serializedVersion: 2
      x: 0.5
      y: 0.5625
      width: 0.0625
      height: 0.0625
    collData:
      vertices: []
      type: 0
    paramContainer:
      m_paramList: []
    prefabData:
      prefab: {fileID: 0}
      offset: {x: 0, y: 0, z: 0}
      offsetMode: 0
      showTileWithPrefab: 0
      showPrefabPreviewInTilePalette: 0
    autilingGroup: 0
  - uv:
      serializedVersion: 2
      x: 0.5625
      y: 0.5625
      width: 0.0625
      height: 0.0625
    collData:
      vertices: []
      type: 0
    paramContainer:
      m_paramList: []
    prefabData:
      prefab: {fileID: 0}
      offset: {x: 0, y: 0, z: 0}
      offsetMode: 0
      showTileWithPrefab: 0
      showPrefabPreviewInTilePalette: 0
    autilingGroup: 0
  - uv:
      serializedVersion: 2
      x: 0.625
      y: 0.5625
      width: 0.0625
      height: 0.0625
    collData:
      vertices: []
      type: 0
    paramContainer:
      m_paramList: []
    prefabData:
      prefab: {fileID: 0}
      offset: {x: 0, y: 0, z: 0}
      offsetMode: 0
      showTileWithPrefab: 0
      showPrefabPreviewInTilePalette: 0
    autilingGroup: 0
  - uv:
      serializedVersion: 2
      x: 0.6875
      y: 0.5625
      width: 0.0625
      height: 0.0625
    collData:
      vertices: []
      type: 0
    paramContainer:
      m_paramList: []
    prefabData:
      prefab: {fileID: 0}
      offset: {x: 0, y: 0, z: 0}
      offsetMode: 0
      showTileWithPrefab: 0
      showPrefabPreviewInTilePalette: 0
    autilingGroup: 0
  - uv:
      serializedVersion: 2
      x: 0.75
      y: 0.5625
      width: 0.0625
      height: 0.0625
    collData:
      vertices: []
      type: 0
    paramContainer:
      m_paramList: []
    prefabData:
      prefab: {fileID: 0}
      offset: {x: 0, y: 0, z: 0}
      offsetMode: 0
      showTileWithPrefab: 0
      showPrefabPreviewInTilePalette: 0
    autilingGroup: 0
  - uv:
      serializedVersion: 2
      x: 0.8125
      y: 0.5625
      width: 0.0625
      height: 0.0625
    collData:
      vertices: []
      type: 0
    paramContainer:
      m_paramList: []
    prefabData:
      prefab: {fileID: 0}
      offset: {x: 0, y: 0, z: 0}
      offsetMode: 0
      showTileWithPrefab: 0
      showPrefabPreviewInTilePalette: 0
    autilingGroup: 0
  - uv:
      serializedVersion: 2
      x: 0.875
      y: 0.5625
      width: 0.0625
      height: 0.0625
    collData:
      vertices: []
      type: 0
    paramContainer:
      m_paramList: []
    prefabData:
      prefab: {fileID: 0}
      offset: {x: 0, y: 0, z: 0}
      offsetMode: 0
      showTileWithPrefab: 0
      showPrefabPreviewInTilePalette: 0
    autilingGroup: 0
  - uv:
      serializedVersion: 2
      x: 0.9375
      y: 0.5625
      width: 0.0625
      height: 0.0625
    collData:
      vertices: []
      type: 0
    paramContainer:
      m_paramList: []
    prefabData:
      prefab: {fileID: 0}
      offset: {x: 0, y: 0, z: 0}
      offsetMode: 0
      showTileWithPrefab: 0
      showPrefabPreviewInTilePalette: 0
    autilingGroup: 0
  - uv:
      serializedVersion: 2
      x: 0
      y: 0.5
      width: 0.0625
      height: 0.0625
    collData:
      vertices: []
      type: 0
    paramContainer:
      m_paramList: []
    prefabData:
      prefab: {fileID: 0}
      offset: {x: 0, y: 0, z: 0}
      offsetMode: 0
      showTileWithPrefab: 0
      showPrefabPreviewInTilePalette: 0
    autilingGroup: 0
  - uv:
      serializedVersion: 2
      x: 0.0625
      y: 0.5
      width: 0.0625
      height: 0.0625
    collData:
      vertices: []
      type: 0
    paramContainer:
      m_paramList: []
    prefabData:
      prefab: {fileID: 0}
      offset: {x: 0, y: 0, z: 0}
      offsetMode: 0
      showTileWithPrefab: 0
      showPrefabPreviewInTilePalette: 0
    autilingGroup: 0
  - uv:
      serializedVersion: 2
      x: 0.125
      y: 0.5
      width: 0.0625
      height: 0.0625
    collData:
      vertices: []
      type: 0
    paramContainer:
      m_paramList: []
    prefabData:
      prefab: {fileID: 0}
      offset: {x: 0, y: 0, z: 0}
      offsetMode: 0
      showTileWithPrefab: 0
      showPrefabPreviewInTilePalette: 0
    autilingGroup: 0
  - uv:
      serializedVersion: 2
      x: 0.1875
      y: 0.5
      width: 0.0625
      height: 0.0625
    collData:
      vertices: []
      type: 0
    paramContainer:
      m_paramList: []
    prefabData:
      prefab: {fileID: 0}
      offset: {x: 0, y: 0, z: 0}
      offsetMode: 0
      showTileWithPrefab: 0
      showPrefabPreviewInTilePalette: 0
    autilingGroup: 0
  - uv:
      serializedVersion: 2
      x: 0.25
      y: 0.5
      width: 0.0625
      height: 0.0625
    collData:
      vertices: []
      type: 0
    paramContainer:
      m_paramList: []
    prefabData:
      prefab: {fileID: 0}
      offset: {x: 0, y: 0, z: 0}
      offsetMode: 0
      showTileWithPrefab: 0
      showPrefabPreviewInTilePalette: 0
    autilingGroup: 0
  - uv:
      serializedVersion: 2
      x: 0.3125
      y: 0.5
      width: 0.0625
      height: 0.0625
    collData:
      vertices: []
      type: 0
    paramContainer:
      m_paramList: []
    prefabData:
      prefab: {fileID: 0}
      offset: {x: 0, y: 0, z: 0}
      offsetMode: 0
      showTileWithPrefab: 0
      showPrefabPreviewInTilePalette: 0
    autilingGroup: 0
  - uv:
      serializedVersion: 2
      x: 0.375
      y: 0.5
      width: 0.0625
      height: 0.0625
    collData:
      vertices: []
      type: 0
    paramContainer:
      m_paramList: []
    prefabData:
      prefab: {fileID: 0}
      offset: {x: 0, y: 0, z: 0}
      offsetMode: 0
      showTileWithPrefab: 0
      showPrefabPreviewInTilePalette: 0
    autilingGroup: 0
  - uv:
      serializedVersion: 2
      x: 0.4375
      y: 0.5
      width: 0.0625
      height: 0.0625
    collData:
      vertices: []
      type: 0
    paramContainer:
      m_paramList: []
    prefabData:
      prefab: {fileID: 0}
      offset: {x: 0, y: 0, z: 0}
      offsetMode: 0
      showTileWithPrefab: 0
      showPrefabPreviewInTilePalette: 0
    autilingGroup: 0
  - uv:
      serializedVersion: 2
      x: 0.5
      y: 0.5
      width: 0.0625
      height: 0.0625
    collData:
      vertices: []
      type: 0
    paramContainer:
      m_paramList: []
    prefabData:
      prefab: {fileID: 0}
      offset: {x: 0, y: 0, z: 0}
      offsetMode: 0
      showTileWithPrefab: 0
      showPrefabPreviewInTilePalette: 0
    autilingGroup: 0
  - uv:
      serializedVersion: 2
      x: 0.5625
      y: 0.5
      width: 0.0625
      height: 0.0625
    collData:
      vertices: []
      type: 0
    paramContainer:
      m_paramList: []
    prefabData:
      prefab: {fileID: 0}
      offset: {x: 0, y: 0, z: 0}
      offsetMode: 0
      showTileWithPrefab: 0
      showPrefabPreviewInTilePalette: 0
    autilingGroup: 0
  - uv:
      serializedVersion: 2
      x: 0.625
      y: 0.5
      width: 0.0625
      height: 0.0625
    collData:
      vertices: []
      type: 0
    paramContainer:
      m_paramList: []
    prefabData:
      prefab: {fileID: 0}
      offset: {x: 0, y: 0, z: 0}
      offsetMode: 0
      showTileWithPrefab: 0
      showPrefabPreviewInTilePalette: 0
    autilingGroup: 0
  - uv:
      serializedVersion: 2
      x: 0.6875
      y: 0.5
      width: 0.0625
      height: 0.0625
    collData:
      vertices: []
      type: 0
    paramContainer:
      m_paramList: []
    prefabData:
      prefab: {fileID: 0}
      offset: {x: 0, y: 0, z: 0}
      offsetMode: 0
      showTileWithPrefab: 0
      showPrefabPreviewInTilePalette: 0
    autilingGroup: 0
  - uv:
      serializedVersion: 2
      x: 0.75
      y: 0.5
      width: 0.0625
      height: 0.0625
    collData:
      vertices: []
      type: 0
    paramContainer:
      m_paramList: []
    prefabData:
      prefab: {fileID: 0}
      offset: {x: 0, y: 0, z: 0}
      offsetMode: 0
      showTileWithPrefab: 0
      showPrefabPreviewInTilePalette: 0
    autilingGroup: 0
  - uv:
      serializedVersion: 2
      x: 0.8125
      y: 0.5
      width: 0.0625
      height: 0.0625
    collData:
      vertices: []
      type: 0
    paramContainer:
      m_paramList: []
    prefabData:
      prefab: {fileID: 0}
      offset: {x: 0, y: 0, z: 0}
      offsetMode: 0
      showTileWithPrefab: 0
      showPrefabPreviewInTilePalette: 0
    autilingGroup: 0
  - uv:
      serializedVersion: 2
      x: 0.875
      y: 0.5
      width: 0.0625
      height: 0.0625
    collData:
      vertices: []
      type: 0
    paramContainer:
      m_paramList: []
    prefabData:
      prefab: {fileID: 0}
      offset: {x: 0, y: 0, z: 0}
      offsetMode: 0
      showTileWithPrefab: 0
      showPrefabPreviewInTilePalette: 0
    autilingGroup: 0
  - uv:
      serializedVersion: 2
      x: 0.9375
      y: 0.5
      width: 0.0625
      height: 0.0625
    collData:
      vertices: []
      type: 0
    paramContainer:
      m_paramList: []
    prefabData:
      prefab: {fileID: 0}
      offset: {x: 0, y: 0, z: 0}
      offsetMode: 0
      showTileWithPrefab: 0
      showPrefabPreviewInTilePalette: 0
    autilingGroup: 0
  - uv:
      serializedVersion: 2
      x: 0
      y: 0.4375
      width: 0.0625
      height: 0.0625
    collData:
      vertices: []
      type: 0
    paramContainer:
      m_paramList: []
    prefabData:
      prefab: {fileID: 0}
      offset: {x: 0, y: 0, z: 0}
      offsetMode: 0
      showTileWithPrefab: 0
      showPrefabPreviewInTilePalette: 0
    autilingGroup: 0
  - uv:
      serializedVersion: 2
      x: 0.0625
      y: 0.4375
      width: 0.0625
      height: 0.0625
    collData:
      vertices: []
      type: 0
    paramContainer:
      m_paramList: []
    prefabData:
      prefab: {fileID: 0}
      offset: {x: 0, y: 0, z: 0}
      offsetMode: 0
      showTileWithPrefab: 0
      showPrefabPreviewInTilePalette: 0
    autilingGroup: 0
  - uv:
      serializedVersion: 2
      x: 0.125
      y: 0.4375
      width: 0.0625
      height: 0.0625
    collData:
      vertices: []
      type: 0
    paramContainer:
      m_paramList: []
    prefabData:
      prefab: {fileID: 0}
      offset: {x: 0, y: 0, z: 0}
      offsetMode: 0
      showTileWithPrefab: 0
      showPrefabPreviewInTilePalette: 0
    autilingGroup: 0
  - uv:
      serializedVersion: 2
      x: 0.1875
      y: 0.4375
      width: 0.0625
      height: 0.0625
    collData:
      vertices: []
      type: 0
    paramContainer:
      m_paramList: []
    prefabData:
      prefab: {fileID: 0}
      offset: {x: 0, y: 0, z: 0}
      offsetMode: 0
      showTileWithPrefab: 0
      showPrefabPreviewInTilePalette: 0
    autilingGroup: 0
  - uv:
      serializedVersion: 2
      x: 0.25
      y: 0.4375
      width: 0.0625
      height: 0.0625
    collData:
      vertices: []
      type: 0
    paramContainer:
      m_paramList: []
    prefabData:
      prefab: {fileID: 0}
      offset: {x: 0, y: 0, z: 0}
      offsetMode: 0
      showTileWithPrefab: 0
      showPrefabPreviewInTilePalette: 0
    autilingGroup: 0
  - uv:
      serializedVersion: 2
      x: 0.3125
      y: 0.4375
      width: 0.0625
      height: 0.0625
    collData:
      vertices: []
      type: 0
    paramContainer:
      m_paramList: []
    prefabData:
      prefab: {fileID: 0}
      offset: {x: 0, y: 0, z: 0}
      offsetMode: 0
      showTileWithPrefab: 0
      showPrefabPreviewInTilePalette: 0
    autilingGroup: 0
  - uv:
      serializedVersion: 2
      x: 0.375
      y: 0.4375
      width: 0.0625
      height: 0.0625
    collData:
      vertices: []
      type: 0
    paramContainer:
      m_paramList: []
    prefabData:
      prefab: {fileID: 0}
      offset: {x: 0, y: 0, z: 0}
      offsetMode: 0
      showTileWithPrefab: 0
      showPrefabPreviewInTilePalette: 0
    autilingGroup: 0
  - uv:
      serializedVersion: 2
      x: 0.4375
      y: 0.4375
      width: 0.0625
      height: 0.0625
    collData:
      vertices: []
      type: 0
    paramContainer:
      m_paramList: []
    prefabData:
      prefab: {fileID: 0}
      offset: {x: 0, y: 0, z: 0}
      offsetMode: 0
      showTileWithPrefab: 0
      showPrefabPreviewInTilePalette: 0
    autilingGroup: 0
  - uv:
      serializedVersion: 2
      x: 0.5
      y: 0.4375
      width: 0.0625
      height: 0.0625
    collData:
      vertices: []
      type: 0
    paramContainer:
      m_paramList: []
    prefabData:
      prefab: {fileID: 0}
      offset: {x: 0, y: 0, z: 0}
      offsetMode: 0
      showTileWithPrefab: 0
      showPrefabPreviewInTilePalette: 0
    autilingGroup: 0
  - uv:
      serializedVersion: 2
      x: 0.5625
      y: 0.4375
      width: 0.0625
      height: 0.0625
    collData:
      vertices: []
      type: 0
    paramContainer:
      m_paramList: []
    prefabData:
      prefab: {fileID: 0}
      offset: {x: 0, y: 0, z: 0}
      offsetMode: 0
      showTileWithPrefab: 0
      showPrefabPreviewInTilePalette: 0
    autilingGroup: 0
  - uv:
      serializedVersion: 2
      x: 0.625
      y: 0.4375
      width: 0.0625
      height: 0.0625
    collData:
      vertices: []
      type: 0
    paramContainer:
      m_paramList: []
    prefabData:
      prefab: {fileID: 0}
      offset: {x: 0, y: 0, z: 0}
      offsetMode: 0
      showTileWithPrefab: 0
      showPrefabPreviewInTilePalette: 0
    autilingGroup: 0
  - uv:
      serializedVersion: 2
      x: 0.6875
      y: 0.4375
      width: 0.0625
      height: 0.0625
    collData:
      vertices: []
      type: 0
    paramContainer:
      m_paramList: []
    prefabData:
      prefab: {fileID: 0}
      offset: {x: 0, y: 0, z: 0}
      offsetMode: 0
      showTileWithPrefab: 0
      showPrefabPreviewInTilePalette: 0
    autilingGroup: 0
  - uv:
      serializedVersion: 2
      x: 0.75
      y: 0.4375
      width: 0.0625
      height: 0.0625
    collData:
      vertices: []
      type: 0
    paramContainer:
      m_paramList: []
    prefabData:
      prefab: {fileID: 0}
      offset: {x: 0, y: 0, z: 0}
      offsetMode: 0
      showTileWithPrefab: 0
      showPrefabPreviewInTilePalette: 0
    autilingGroup: 0
  - uv:
      serializedVersion: 2
      x: 0.8125
      y: 0.4375
      width: 0.0625
      height: 0.0625
    collData:
      vertices: []
      type: 0
    paramContainer:
      m_paramList: []
    prefabData:
      prefab: {fileID: 0}
      offset: {x: 0, y: 0, z: 0}
      offsetMode: 0
      showTileWithPrefab: 0
      showPrefabPreviewInTilePalette: 0
    autilingGroup: 0
  - uv:
      serializedVersion: 2
      x: 0.875
      y: 0.4375
      width: 0.0625
      height: 0.0625
    collData:
      vertices: []
      type: 0
    paramContainer:
      m_paramList: []
    prefabData:
      prefab: {fileID: 0}
      offset: {x: 0, y: 0, z: 0}
      offsetMode: 0
      showTileWithPrefab: 0
      showPrefabPreviewInTilePalette: 0
    autilingGroup: 0
  - uv:
      serializedVersion: 2
      x: 0.9375
      y: 0.4375
      width: 0.0625
      height: 0.0625
    collData:
      vertices: []
      type: 0
    paramContainer:
      m_paramList: []
    prefabData:
      prefab: {fileID: 0}
      offset: {x: 0, y: 0, z: 0}
      offsetMode: 0
      showTileWithPrefab: 0
      showPrefabPreviewInTilePalette: 0
    autilingGroup: 0
  - uv:
      serializedVersion: 2
      x: 0
      y: 0.375
      width: 0.0625
      height: 0.0625
    collData:
      vertices: []
      type: 0
    paramContainer:
      m_paramList: []
    prefabData:
      prefab: {fileID: 0}
      offset: {x: 0, y: 0, z: 0}
      offsetMode: 0
      showTileWithPrefab: 0
      showPrefabPreviewInTilePalette: 0
    autilingGroup: 0
  - uv:
      serializedVersion: 2
      x: 0.0625
      y: 0.375
      width: 0.0625
      height: 0.0625
    collData:
      vertices: []
      type: 0
    paramContainer:
      m_paramList: []
    prefabData:
      prefab: {fileID: 0}
      offset: {x: 0, y: 0, z: 0}
      offsetMode: 0
      showTileWithPrefab: 0
      showPrefabPreviewInTilePalette: 0
    autilingGroup: 0
  - uv:
      serializedVersion: 2
      x: 0.125
      y: 0.375
      width: 0.0625
      height: 0.0625
    collData:
      vertices: []
      type: 0
    paramContainer:
      m_paramList: []
    prefabData:
      prefab: {fileID: 0}
      offset: {x: 0, y: 0, z: 0}
      offsetMode: 0
      showTileWithPrefab: 0
      showPrefabPreviewInTilePalette: 0
    autilingGroup: 0
  - uv:
      serializedVersion: 2
      x: 0.1875
      y: 0.375
      width: 0.0625
      height: 0.0625
    collData:
      vertices: []
      type: 0
    paramContainer:
      m_paramList: []
    prefabData:
      prefab: {fileID: 0}
      offset: {x: 0, y: 0, z: 0}
      offsetMode: 0
      showTileWithPrefab: 0
      showPrefabPreviewInTilePalette: 0
    autilingGroup: 0
  - uv:
      serializedVersion: 2
      x: 0.25
      y: 0.375
      width: 0.0625
      height: 0.0625
    collData:
      vertices: []
      type: 0
    paramContainer:
      m_paramList: []
    prefabData:
      prefab: {fileID: 0}
      offset: {x: 0, y: 0, z: 0}
      offsetMode: 0
      showTileWithPrefab: 0
      showPrefabPreviewInTilePalette: 0
    autilingGroup: 0
  - uv:
      serializedVersion: 2
      x: 0.3125
      y: 0.375
      width: 0.0625
      height: 0.0625
    collData:
      vertices: []
      type: 0
    paramContainer:
      m_paramList: []
    prefabData:
      prefab: {fileID: 0}
      offset: {x: 0, y: 0, z: 0}
      offsetMode: 0
      showTileWithPrefab: 0
      showPrefabPreviewInTilePalette: 0
    autilingGroup: 0
  - uv:
      serializedVersion: 2
      x: 0.375
      y: 0.375
      width: 0.0625
      height: 0.0625
    collData:
      vertices: []
      type: 0
    paramContainer:
      m_paramList: []
    prefabData:
      prefab: {fileID: 0}
      offset: {x: 0, y: 0, z: 0}
      offsetMode: 0
      showTileWithPrefab: 0
      showPrefabPreviewInTilePalette: 0
    autilingGroup: 0
  - uv:
      serializedVersion: 2
      x: 0.4375
      y: 0.375
      width: 0.0625
      height: 0.0625
    collData:
      vertices: []
      type: 0
    paramContainer:
      m_paramList: []
    prefabData:
      prefab: {fileID: 0}
      offset: {x: 0, y: 0, z: 0}
      offsetMode: 0
      showTileWithPrefab: 0
      showPrefabPreviewInTilePalette: 0
    autilingGroup: 0
  - uv:
      serializedVersion: 2
      x: 0.5
      y: 0.375
      width: 0.0625
      height: 0.0625
    collData:
      vertices: []
      type: 0
    paramContainer:
      m_paramList: []
    prefabData:
      prefab: {fileID: 0}
      offset: {x: 0, y: 0, z: 0}
      offsetMode: 0
      showTileWithPrefab: 0
      showPrefabPreviewInTilePalette: 0
    autilingGroup: 0
  - uv:
      serializedVersion: 2
      x: 0.5625
      y: 0.375
      width: 0.0625
      height: 0.0625
    collData:
      vertices: []
      type: 0
    paramContainer:
      m_paramList: []
    prefabData:
      prefab: {fileID: 0}
      offset: {x: 0, y: 0, z: 0}
      offsetMode: 0
      showTileWithPrefab: 0
      showPrefabPreviewInTilePalette: 0
    autilingGroup: 0
  - uv:
      serializedVersion: 2
      x: 0.625
      y: 0.375
      width: 0.0625
      height: 0.0625
    collData:
      vertices: []
      type: 0
    paramContainer:
      m_paramList: []
    prefabData:
      prefab: {fileID: 0}
      offset: {x: 0, y: 0, z: 0}
      offsetMode: 0
      showTileWithPrefab: 0
      showPrefabPreviewInTilePalette: 0
    autilingGroup: 0
  - uv:
      serializedVersion: 2
      x: 0.6875
      y: 0.375
      width: 0.0625
      height: 0.0625
    collData:
      vertices: []
      type: 0
    paramContainer:
      m_paramList: []
    prefabData:
      prefab: {fileID: 0}
      offset: {x: 0, y: 0, z: 0}
      offsetMode: 0
      showTileWithPrefab: 0
      showPrefabPreviewInTilePalette: 0
    autilingGroup: 0
  - uv:
      serializedVersion: 2
      x: 0.75
      y: 0.375
      width: 0.0625
      height: 0.0625
    collData:
      vertices: []
      type: 0
    paramContainer:
      m_paramList: []
    prefabData:
      prefab: {fileID: 0}
      offset: {x: 0, y: 0, z: 0}
      offsetMode: 0
      showTileWithPrefab: 0
      showPrefabPreviewInTilePalette: 0
    autilingGroup: 0
  - uv:
      serializedVersion: 2
      x: 0.8125
      y: 0.375
      width: 0.0625
      height: 0.0625
    collData:
      vertices: []
      type: 0
    paramContainer:
      m_paramList: []
    prefabData:
      prefab: {fileID: 0}
      offset: {x: 0, y: 0, z: 0}
      offsetMode: 0
      showTileWithPrefab: 0
      showPrefabPreviewInTilePalette: 0
    autilingGroup: 0
  - uv:
      serializedVersion: 2
      x: 0.875
      y: 0.375
      width: 0.0625
      height: 0.0625
    collData:
      vertices: []
      type: 0
    paramContainer:
      m_paramList: []
    prefabData:
      prefab: {fileID: 0}
      offset: {x: 0, y: 0, z: 0}
      offsetMode: 0
      showTileWithPrefab: 0
      showPrefabPreviewInTilePalette: 0
    autilingGroup: 0
  - uv:
      serializedVersion: 2
      x: 0.9375
      y: 0.375
      width: 0.0625
      height: 0.0625
    collData:
      vertices: []
      type: 0
    paramContainer:
      m_paramList: []
    prefabData:
      prefab: {fileID: 0}
      offset: {x: 0, y: 0, z: 0}
      offsetMode: 0
      showTileWithPrefab: 0
      showPrefabPreviewInTilePalette: 0
    autilingGroup: 0
  - uv:
      serializedVersion: 2
      x: 0
      y: 0.3125
      width: 0.0625
      height: 0.0625
    collData:
      vertices: []
      type: 0
    paramContainer:
      m_paramList: []
    prefabData:
      prefab: {fileID: 0}
      offset: {x: 0, y: 0, z: 0}
      offsetMode: 0
      showTileWithPrefab: 0
      showPrefabPreviewInTilePalette: 0
    autilingGroup: 0
  - uv:
      serializedVersion: 2
      x: 0.0625
      y: 0.3125
      width: 0.0625
      height: 0.0625
    collData:
      vertices: []
      type: 0
    paramContainer:
      m_paramList: []
    prefabData:
      prefab: {fileID: 0}
      offset: {x: 0, y: 0, z: 0}
      offsetMode: 0
      showTileWithPrefab: 0
      showPrefabPreviewInTilePalette: 0
    autilingGroup: 0
  - uv:
      serializedVersion: 2
      x: 0.125
      y: 0.3125
      width: 0.0625
      height: 0.0625
    collData:
      vertices: []
      type: 0
    paramContainer:
      m_paramList: []
    prefabData:
      prefab: {fileID: 0}
      offset: {x: 0, y: 0, z: 0}
      offsetMode: 0
      showTileWithPrefab: 0
      showPrefabPreviewInTilePalette: 0
    autilingGroup: 0
  - uv:
      serializedVersion: 2
      x: 0.1875
      y: 0.3125
      width: 0.0625
      height: 0.0625
    collData:
      vertices: []
      type: 0
    paramContainer:
      m_paramList: []
    prefabData:
      prefab: {fileID: 0}
      offset: {x: 0, y: 0, z: 0}
      offsetMode: 0
      showTileWithPrefab: 0
      showPrefabPreviewInTilePalette: 0
    autilingGroup: 0
  - uv:
      serializedVersion: 2
      x: 0.25
      y: 0.3125
      width: 0.0625
      height: 0.0625
    collData:
      vertices: []
      type: 0
    paramContainer:
      m_paramList: []
    prefabData:
      prefab: {fileID: 0}
      offset: {x: 0, y: 0, z: 0}
      offsetMode: 0
      showTileWithPrefab: 0
      showPrefabPreviewInTilePalette: 0
    autilingGroup: 0
  - uv:
      serializedVersion: 2
      x: 0.3125
      y: 0.3125
      width: 0.0625
      height: 0.0625
    collData:
      vertices: []
      type: 0
    paramContainer:
      m_paramList: []
    prefabData:
      prefab: {fileID: 0}
      offset: {x: 0, y: 0, z: 0}
      offsetMode: 0
      showTileWithPrefab: 0
      showPrefabPreviewInTilePalette: 0
    autilingGroup: 0
  - uv:
      serializedVersion: 2
      x: 0.375
      y: 0.3125
      width: 0.0625
      height: 0.0625
    collData:
      vertices: []
      type: 0
    paramContainer:
      m_paramList: []
    prefabData:
      prefab: {fileID: 0}
      offset: {x: 0, y: 0, z: 0}
      offsetMode: 0
      showTileWithPrefab: 0
      showPrefabPreviewInTilePalette: 0
    autilingGroup: 0
  - uv:
      serializedVersion: 2
      x: 0.4375
      y: 0.3125
      width: 0.0625
      height: 0.0625
    collData:
      vertices: []
      type: 0
    paramContainer:
      m_paramList: []
    prefabData:
      prefab: {fileID: 0}
      offset: {x: 0, y: 0, z: 0}
      offsetMode: 0
      showTileWithPrefab: 0
      showPrefabPreviewInTilePalette: 0
    autilingGroup: 0
  - uv:
      serializedVersion: 2
      x: 0.5
      y: 0.3125
      width: 0.0625
      height: 0.0625
    collData:
      vertices: []
      type: 0
    paramContainer:
      m_paramList: []
    prefabData:
      prefab: {fileID: 0}
      offset: {x: 0, y: 0, z: 0}
      offsetMode: 0
      showTileWithPrefab: 0
      showPrefabPreviewInTilePalette: 0
    autilingGroup: 0
  - uv:
      serializedVersion: 2
      x: 0.5625
      y: 0.3125
      width: 0.0625
      height: 0.0625
    collData:
      vertices: []
      type: 0
    paramContainer:
      m_paramList: []
    prefabData:
      prefab: {fileID: 0}
      offset: {x: 0, y: 0, z: 0}
      offsetMode: 0
      showTileWithPrefab: 0
      showPrefabPreviewInTilePalette: 0
    autilingGroup: 0
  - uv:
      serializedVersion: 2
      x: 0.625
      y: 0.3125
      width: 0.0625
      height: 0.0625
    collData:
      vertices: []
      type: 0
    paramContainer:
      m_paramList: []
    prefabData:
      prefab: {fileID: 0}
      offset: {x: 0, y: 0, z: 0}
      offsetMode: 0
      showTileWithPrefab: 0
      showPrefabPreviewInTilePalette: 0
    autilingGroup: 0
  - uv:
      serializedVersion: 2
      x: 0.6875
      y: 0.3125
      width: 0.0625
      height: 0.0625
    collData:
      vertices: []
      type: 0
    paramContainer:
      m_paramList: []
    prefabData:
      prefab: {fileID: 0}
      offset: {x: 0, y: 0, z: 0}
      offsetMode: 0
      showTileWithPrefab: 0
      showPrefabPreviewInTilePalette: 0
    autilingGroup: 0
  - uv:
      serializedVersion: 2
      x: 0.75
      y: 0.3125
      width: 0.0625
      height: 0.0625
    collData:
      vertices: []
      type: 0
    paramContainer:
      m_paramList: []
    prefabData:
      prefab: {fileID: 0}
      offset: {x: 0, y: 0, z: 0}
      offsetMode: 0
      showTileWithPrefab: 0
      showPrefabPreviewInTilePalette: 0
    autilingGroup: 0
  - uv:
      serializedVersion: 2
      x: 0.8125
      y: 0.3125
      width: 0.0625
      height: 0.0625
    collData:
      vertices: []
      type: 0
    paramContainer:
      m_paramList: []
    prefabData:
      prefab: {fileID: 0}
      offset: {x: 0, y: 0, z: 0}
      offsetMode: 0
      showTileWithPrefab: 0
      showPrefabPreviewInTilePalette: 0
    autilingGroup: 0
  - uv:
      serializedVersion: 2
      x: 0.875
      y: 0.3125
      width: 0.0625
      height: 0.0625
    collData:
      vertices: []
      type: 0
    paramContainer:
      m_paramList: []
    prefabData:
      prefab: {fileID: 0}
      offset: {x: 0, y: 0, z: 0}
      offsetMode: 0
      showTileWithPrefab: 0
      showPrefabPreviewInTilePalette: 0
    autilingGroup: 0
  - uv:
      serializedVersion: 2
      x: 0.9375
      y: 0.3125
      width: 0.0625
      height: 0.0625
    collData:
      vertices: []
      type: 0
    paramContainer:
      m_paramList: []
    prefabData:
      prefab: {fileID: 0}
      offset: {x: 0, y: 0, z: 0}
      offsetMode: 0
      showTileWithPrefab: 0
      showPrefabPreviewInTilePalette: 0
    autilingGroup: 0
  - uv:
      serializedVersion: 2
      x: 0
      y: 0.25
      width: 0.0625
      height: 0.0625
    collData:
      vertices: []
      type: 0
    paramContainer:
      m_paramList: []
    prefabData:
      prefab: {fileID: 0}
      offset: {x: 0, y: 0, z: 0}
      offsetMode: 0
      showTileWithPrefab: 0
      showPrefabPreviewInTilePalette: 0
    autilingGroup: 0
  - uv:
      serializedVersion: 2
      x: 0.0625
      y: 0.25
      width: 0.0625
      height: 0.0625
    collData:
      vertices: []
      type: 0
    paramContainer:
      m_paramList: []
    prefabData:
      prefab: {fileID: 0}
      offset: {x: 0, y: 0, z: 0}
      offsetMode: 0
      showTileWithPrefab: 0
      showPrefabPreviewInTilePalette: 0
    autilingGroup: 0
  - uv:
      serializedVersion: 2
      x: 0.125
      y: 0.25
      width: 0.0625
      height: 0.0625
    collData:
      vertices: []
      type: 0
    paramContainer:
      m_paramList: []
    prefabData:
      prefab: {fileID: 0}
      offset: {x: 0, y: 0, z: 0}
      offsetMode: 0
      showTileWithPrefab: 0
      showPrefabPreviewInTilePalette: 0
    autilingGroup: 0
  - uv:
      serializedVersion: 2
      x: 0.1875
      y: 0.25
      width: 0.0625
      height: 0.0625
    collData:
      vertices: []
      type: 0
    paramContainer:
      m_paramList: []
    prefabData:
      prefab: {fileID: 0}
      offset: {x: 0, y: 0, z: 0}
      offsetMode: 0
      showTileWithPrefab: 0
      showPrefabPreviewInTilePalette: 0
    autilingGroup: 0
  - uv:
      serializedVersion: 2
      x: 0.25
      y: 0.25
      width: 0.0625
      height: 0.0625
    collData:
      vertices: []
      type: 0
    paramContainer:
      m_paramList: []
    prefabData:
      prefab: {fileID: 0}
      offset: {x: 0, y: 0, z: 0}
      offsetMode: 0
      showTileWithPrefab: 0
      showPrefabPreviewInTilePalette: 0
    autilingGroup: 0
  - uv:
      serializedVersion: 2
      x: 0.3125
      y: 0.25
      width: 0.0625
      height: 0.0625
    collData:
      vertices: []
      type: 0
    paramContainer:
      m_paramList: []
    prefabData:
      prefab: {fileID: 0}
      offset: {x: 0, y: 0, z: 0}
      offsetMode: 0
      showTileWithPrefab: 0
      showPrefabPreviewInTilePalette: 0
    autilingGroup: 0
  - uv:
      serializedVersion: 2
      x: 0.375
      y: 0.25
      width: 0.0625
      height: 0.0625
    collData:
      vertices: []
      type: 0
    paramContainer:
      m_paramList: []
    prefabData:
      prefab: {fileID: 0}
      offset: {x: 0, y: 0, z: 0}
      offsetMode: 0
      showTileWithPrefab: 0
      showPrefabPreviewInTilePalette: 0
    autilingGroup: 0
  - uv:
      serializedVersion: 2
      x: 0.4375
      y: 0.25
      width: 0.0625
      height: 0.0625
    collData:
      vertices: []
      type: 0
    paramContainer:
      m_paramList: []
    prefabData:
      prefab: {fileID: 0}
      offset: {x: 0, y: 0, z: 0}
      offsetMode: 0
      showTileWithPrefab: 0
      showPrefabPreviewInTilePalette: 0
    autilingGroup: 0
  - uv:
      serializedVersion: 2
      x: 0.5
      y: 0.25
      width: 0.0625
      height: 0.0625
    collData:
      vertices: []
      type: 0
    paramContainer:
      m_paramList: []
    prefabData:
      prefab: {fileID: 0}
      offset: {x: 0, y: 0, z: 0}
      offsetMode: 0
      showTileWithPrefab: 0
      showPrefabPreviewInTilePalette: 0
    autilingGroup: 0
  - uv:
      serializedVersion: 2
      x: 0.5625
      y: 0.25
      width: 0.0625
      height: 0.0625
    collData:
      vertices: []
      type: 0
    paramContainer:
      m_paramList: []
    prefabData:
      prefab: {fileID: 0}
      offset: {x: 0, y: 0, z: 0}
      offsetMode: 0
      showTileWithPrefab: 0
      showPrefabPreviewInTilePalette: 0
    autilingGroup: 0
  - uv:
      serializedVersion: 2
      x: 0.625
      y: 0.25
      width: 0.0625
      height: 0.0625
    collData:
      vertices: []
      type: 0
    paramContainer:
      m_paramList: []
    prefabData:
      prefab: {fileID: 0}
      offset: {x: 0, y: 0, z: 0}
      offsetMode: 0
      showTileWithPrefab: 0
      showPrefabPreviewInTilePalette: 0
    autilingGroup: 0
  - uv:
      serializedVersion: 2
      x: 0.6875
      y: 0.25
      width: 0.0625
      height: 0.0625
    collData:
      vertices: []
      type: 0
    paramContainer:
      m_paramList: []
    prefabData:
      prefab: {fileID: 0}
      offset: {x: 0, y: 0, z: 0}
      offsetMode: 0
      showTileWithPrefab: 0
      showPrefabPreviewInTilePalette: 0
    autilingGroup: 0
  - uv:
      serializedVersion: 2
      x: 0.75
      y: 0.25
      width: 0.0625
      height: 0.0625
    collData:
      vertices: []
      type: 0
    paramContainer:
      m_paramList: []
    prefabData:
      prefab: {fileID: 0}
      offset: {x: 0, y: 0, z: 0}
      offsetMode: 0
      showTileWithPrefab: 0
      showPrefabPreviewInTilePalette: 0
    autilingGroup: 0
  - uv:
      serializedVersion: 2
      x: 0.8125
      y: 0.25
      width: 0.0625
      height: 0.0625
    collData:
      vertices: []
      type: 0
    paramContainer:
      m_paramList: []
    prefabData:
      prefab: {fileID: 0}
      offset: {x: 0, y: 0, z: 0}
      offsetMode: 0
      showTileWithPrefab: 0
      showPrefabPreviewInTilePalette: 0
    autilingGroup: 0
  - uv:
      serializedVersion: 2
      x: 0.875
      y: 0.25
      width: 0.0625
      height: 0.0625
    collData:
      vertices: []
      type: 0
    paramContainer:
      m_paramList: []
    prefabData:
      prefab: {fileID: 0}
      offset: {x: 0, y: 0, z: 0}
      offsetMode: 0
      showTileWithPrefab: 0
      showPrefabPreviewInTilePalette: 0
    autilingGroup: 0
  - uv:
      serializedVersion: 2
      x: 0.9375
      y: 0.25
      width: 0.0625
      height: 0.0625
    collData:
      vertices: []
      type: 0
    paramContainer:
      m_paramList: []
    prefabData:
      prefab: {fileID: 0}
      offset: {x: 0, y: 0, z: 0}
      offsetMode: 0
      showTileWithPrefab: 0
      showPrefabPreviewInTilePalette: 0
    autilingGroup: 0
  - uv:
      serializedVersion: 2
      x: 0
      y: 0.1875
      width: 0.0625
      height: 0.0625
    collData:
      vertices: []
      type: 0
    paramContainer:
      m_paramList: []
    prefabData:
      prefab: {fileID: 0}
      offset: {x: 0, y: 0, z: 0}
      offsetMode: 0
      showTileWithPrefab: 0
      showPrefabPreviewInTilePalette: 0
    autilingGroup: 0
  - uv:
      serializedVersion: 2
      x: 0.0625
      y: 0.1875
      width: 0.0625
      height: 0.0625
    collData:
      vertices: []
      type: 0
    paramContainer:
      m_paramList: []
    prefabData:
      prefab: {fileID: 0}
      offset: {x: 0, y: 0, z: 0}
      offsetMode: 0
      showTileWithPrefab: 0
      showPrefabPreviewInTilePalette: 0
    autilingGroup: 0
  - uv:
      serializedVersion: 2
      x: 0.125
      y: 0.1875
      width: 0.0625
      height: 0.0625
    collData:
      vertices: []
      type: 0
    paramContainer:
      m_paramList: []
    prefabData:
      prefab: {fileID: 0}
      offset: {x: 0, y: 0, z: 0}
      offsetMode: 0
      showTileWithPrefab: 0
      showPrefabPreviewInTilePalette: 0
    autilingGroup: 0
  - uv:
      serializedVersion: 2
      x: 0.1875
      y: 0.1875
      width: 0.0625
      height: 0.0625
    collData:
      vertices: []
      type: 0
    paramContainer:
      m_paramList: []
    prefabData:
      prefab: {fileID: 0}
      offset: {x: 0, y: 0, z: 0}
      offsetMode: 0
      showTileWithPrefab: 0
      showPrefabPreviewInTilePalette: 0
    autilingGroup: 0
  - uv:
      serializedVersion: 2
      x: 0.25
      y: 0.1875
      width: 0.0625
      height: 0.0625
    collData:
      vertices: []
      type: 0
    paramContainer:
      m_paramList: []
    prefabData:
      prefab: {fileID: 0}
      offset: {x: 0, y: 0, z: 0}
      offsetMode: 0
      showTileWithPrefab: 0
      showPrefabPreviewInTilePalette: 0
    autilingGroup: 0
  - uv:
      serializedVersion: 2
      x: 0.3125
      y: 0.1875
      width: 0.0625
      height: 0.0625
    collData:
      vertices: []
      type: 0
    paramContainer:
      m_paramList: []
    prefabData:
      prefab: {fileID: 0}
      offset: {x: 0, y: 0, z: 0}
      offsetMode: 0
      showTileWithPrefab: 0
      showPrefabPreviewInTilePalette: 0
    autilingGroup: 0
  - uv:
      serializedVersion: 2
      x: 0.375
      y: 0.1875
      width: 0.0625
      height: 0.0625
    collData:
      vertices: []
      type: 0
    paramContainer:
      m_paramList: []
    prefabData:
      prefab: {fileID: 0}
      offset: {x: 0, y: 0, z: 0}
      offsetMode: 0
      showTileWithPrefab: 0
      showPrefabPreviewInTilePalette: 0
    autilingGroup: 0
  - uv:
      serializedVersion: 2
      x: 0.4375
      y: 0.1875
      width: 0.0625
      height: 0.0625
    collData:
      vertices: []
      type: 0
    paramContainer:
      m_paramList: []
    prefabData:
      prefab: {fileID: 0}
      offset: {x: 0, y: 0, z: 0}
      offsetMode: 0
      showTileWithPrefab: 0
      showPrefabPreviewInTilePalette: 0
    autilingGroup: 0
  - uv:
      serializedVersion: 2
      x: 0.5
      y: 0.1875
      width: 0.0625
      height: 0.0625
    collData:
      vertices: []
      type: 0
    paramContainer:
      m_paramList: []
    prefabData:
      prefab: {fileID: 0}
      offset: {x: 0, y: 0, z: 0}
      offsetMode: 0
      showTileWithPrefab: 0
      showPrefabPreviewInTilePalette: 0
    autilingGroup: 0
  - uv:
      serializedVersion: 2
      x: 0.5625
      y: 0.1875
      width: 0.0625
      height: 0.0625
    collData:
      vertices: []
      type: 0
    paramContainer:
      m_paramList: []
    prefabData:
      prefab: {fileID: 0}
      offset: {x: 0, y: 0, z: 0}
      offsetMode: 0
      showTileWithPrefab: 0
      showPrefabPreviewInTilePalette: 0
    autilingGroup: 0
  - uv:
      serializedVersion: 2
      x: 0.625
      y: 0.1875
      width: 0.0625
      height: 0.0625
    collData:
      vertices: []
      type: 0
    paramContainer:
      m_paramList: []
    prefabData:
      prefab: {fileID: 0}
      offset: {x: 0, y: 0, z: 0}
      offsetMode: 0
      showTileWithPrefab: 0
      showPrefabPreviewInTilePalette: 0
    autilingGroup: 0
  - uv:
      serializedVersion: 2
      x: 0.6875
      y: 0.1875
      width: 0.0625
      height: 0.0625
    collData:
      vertices: []
      type: 0
    paramContainer:
      m_paramList: []
    prefabData:
      prefab: {fileID: 0}
      offset: {x: 0, y: 0, z: 0}
      offsetMode: 0
      showTileWithPrefab: 0
      showPrefabPreviewInTilePalette: 0
    autilingGroup: 0
  - uv:
      serializedVersion: 2
      x: 0.75
      y: 0.1875
      width: 0.0625
      height: 0.0625
    collData:
      vertices: []
      type: 0
    paramContainer:
      m_paramList: []
    prefabData:
      prefab: {fileID: 0}
      offset: {x: 0, y: 0, z: 0}
      offsetMode: 0
      showTileWithPrefab: 0
      showPrefabPreviewInTilePalette: 0
    autilingGroup: 0
  - uv:
      serializedVersion: 2
      x: 0.8125
      y: 0.1875
      width: 0.0625
      height: 0.0625
    collData:
      vertices: []
      type: 0
    paramContainer:
      m_paramList: []
    prefabData:
      prefab: {fileID: 0}
      offset: {x: 0, y: 0, z: 0}
      offsetMode: 0
      showTileWithPrefab: 0
      showPrefabPreviewInTilePalette: 0
    autilingGroup: 0
  - uv:
      serializedVersion: 2
      x: 0.875
      y: 0.1875
      width: 0.0625
      height: 0.0625
    collData:
      vertices: []
      type: 0
    paramContainer:
      m_paramList: []
    prefabData:
      prefab: {fileID: 0}
      offset: {x: 0, y: 0, z: 0}
      offsetMode: 0
      showTileWithPrefab: 0
      showPrefabPreviewInTilePalette: 0
    autilingGroup: 0
  - uv:
      serializedVersion: 2
      x: 0.9375
      y: 0.1875
      width: 0.0625
      height: 0.0625
    collData:
      vertices: []
      type: 0
    paramContainer:
      m_paramList: []
    prefabData:
      prefab: {fileID: 0}
      offset: {x: 0, y: 0, z: 0}
      offsetMode: 0
      showTileWithPrefab: 0
      showPrefabPreviewInTilePalette: 0
    autilingGroup: 0
  - uv:
      serializedVersion: 2
      x: 0
      y: 0.125
      width: 0.0625
      height: 0.0625
    collData:
      vertices: []
      type: 0
    paramContainer:
      m_paramList: []
    prefabData:
      prefab: {fileID: 0}
      offset: {x: 0, y: 0, z: 0}
      offsetMode: 0
      showTileWithPrefab: 0
      showPrefabPreviewInTilePalette: 0
    autilingGroup: 0
  - uv:
      serializedVersion: 2
      x: 0.0625
      y: 0.125
      width: 0.0625
      height: 0.0625
    collData:
      vertices: []
      type: 0
    paramContainer:
      m_paramList: []
    prefabData:
      prefab: {fileID: 0}
      offset: {x: 0, y: 0, z: 0}
      offsetMode: 0
      showTileWithPrefab: 0
      showPrefabPreviewInTilePalette: 0
    autilingGroup: 0
  - uv:
      serializedVersion: 2
      x: 0.125
      y: 0.125
      width: 0.0625
      height: 0.0625
    collData:
      vertices: []
      type: 0
    paramContainer:
      m_paramList: []
    prefabData:
      prefab: {fileID: 0}
      offset: {x: 0, y: 0, z: 0}
      offsetMode: 0
      showTileWithPrefab: 0
      showPrefabPreviewInTilePalette: 0
    autilingGroup: 0
  - uv:
      serializedVersion: 2
      x: 0.1875
      y: 0.125
      width: 0.0625
      height: 0.0625
    collData:
      vertices: []
      type: 0
    paramContainer:
      m_paramList: []
    prefabData:
      prefab: {fileID: 0}
      offset: {x: 0, y: 0, z: 0}
      offsetMode: 0
      showTileWithPrefab: 0
      showPrefabPreviewInTilePalette: 0
    autilingGroup: 0
  - uv:
      serializedVersion: 2
      x: 0.25
      y: 0.125
      width: 0.0625
      height: 0.0625
    collData:
      vertices: []
      type: 0
    paramContainer:
      m_paramList: []
    prefabData:
      prefab: {fileID: 0}
      offset: {x: 0, y: 0, z: 0}
      offsetMode: 0
      showTileWithPrefab: 0
      showPrefabPreviewInTilePalette: 0
    autilingGroup: 0
  - uv:
      serializedVersion: 2
      x: 0.3125
      y: 0.125
      width: 0.0625
      height: 0.0625
    collData:
      vertices: []
      type: 0
    paramContainer:
      m_paramList: []
    prefabData:
      prefab: {fileID: 0}
      offset: {x: 0, y: 0, z: 0}
      offsetMode: 0
      showTileWithPrefab: 0
      showPrefabPreviewInTilePalette: 0
    autilingGroup: 0
  - uv:
      serializedVersion: 2
      x: 0.375
      y: 0.125
      width: 0.0625
      height: 0.0625
    collData:
      vertices: []
      type: 0
    paramContainer:
      m_paramList: []
    prefabData:
      prefab: {fileID: 0}
      offset: {x: 0, y: 0, z: 0}
      offsetMode: 0
      showTileWithPrefab: 0
      showPrefabPreviewInTilePalette: 0
    autilingGroup: 0
  - uv:
      serializedVersion: 2
      x: 0.4375
      y: 0.125
      width: 0.0625
      height: 0.0625
    collData:
      vertices: []
      type: 0
    paramContainer:
      m_paramList: []
    prefabData:
      prefab: {fileID: 0}
      offset: {x: 0, y: 0, z: 0}
      offsetMode: 0
      showTileWithPrefab: 0
      showPrefabPreviewInTilePalette: 0
    autilingGroup: 0
  - uv:
      serializedVersion: 2
      x: 0.5
      y: 0.125
      width: 0.0625
      height: 0.0625
    collData:
      vertices: []
      type: 0
    paramContainer:
      m_paramList: []
    prefabData:
      prefab: {fileID: 0}
      offset: {x: 0, y: 0, z: 0}
      offsetMode: 0
      showTileWithPrefab: 0
      showPrefabPreviewInTilePalette: 0
    autilingGroup: 0
  - uv:
      serializedVersion: 2
      x: 0.5625
      y: 0.125
      width: 0.0625
      height: 0.0625
    collData:
      vertices: []
      type: 0
    paramContainer:
      m_paramList: []
    prefabData:
      prefab: {fileID: 0}
      offset: {x: 0, y: 0, z: 0}
      offsetMode: 0
      showTileWithPrefab: 0
      showPrefabPreviewInTilePalette: 0
    autilingGroup: 0
  - uv:
      serializedVersion: 2
      x: 0.625
      y: 0.125
      width: 0.0625
      height: 0.0625
    collData:
      vertices: []
      type: 0
    paramContainer:
      m_paramList: []
    prefabData:
      prefab: {fileID: 0}
      offset: {x: 0, y: 0, z: 0}
      offsetMode: 0
      showTileWithPrefab: 0
      showPrefabPreviewInTilePalette: 0
    autilingGroup: 0
  - uv:
      serializedVersion: 2
      x: 0.6875
      y: 0.125
      width: 0.0625
      height: 0.0625
    collData:
      vertices: []
      type: 0
    paramContainer:
      m_paramList: []
    prefabData:
      prefab: {fileID: 0}
      offset: {x: 0, y: 0, z: 0}
      offsetMode: 0
      showTileWithPrefab: 0
      showPrefabPreviewInTilePalette: 0
    autilingGroup: 0
  - uv:
      serializedVersion: 2
      x: 0.75
      y: 0.125
      width: 0.0625
      height: 0.0625
    collData:
      vertices: []
      type: 0
    paramContainer:
      m_paramList: []
    prefabData:
      prefab: {fileID: 0}
      offset: {x: 0, y: 0, z: 0}
      offsetMode: 0
      showTileWithPrefab: 0
      showPrefabPreviewInTilePalette: 0
    autilingGroup: 0
  - uv:
      serializedVersion: 2
      x: 0.8125
      y: 0.125
      width: 0.0625
      height: 0.0625
    collData:
      vertices: []
      type: 0
    paramContainer:
      m_paramList: []
    prefabData:
      prefab: {fileID: 0}
      offset: {x: 0, y: 0, z: 0}
      offsetMode: 0
      showTileWithPrefab: 0
      showPrefabPreviewInTilePalette: 0
    autilingGroup: 0
  - uv:
      serializedVersion: 2
      x: 0.875
      y: 0.125
      width: 0.0625
      height: 0.0625
    collData:
      vertices: []
      type: 0
    paramContainer:
      m_paramList: []
    prefabData:
      prefab: {fileID: 0}
      offset: {x: 0, y: 0, z: 0}
      offsetMode: 0
      showTileWithPrefab: 0
      showPrefabPreviewInTilePalette: 0
    autilingGroup: 0
  - uv:
      serializedVersion: 2
      x: 0.9375
      y: 0.125
      width: 0.0625
      height: 0.0625
    collData:
      vertices: []
      type: 0
    paramContainer:
      m_paramList: []
    prefabData:
      prefab: {fileID: 0}
      offset: {x: 0, y: 0, z: 0}
      offsetMode: 0
      showTileWithPrefab: 0
      showPrefabPreviewInTilePalette: 0
    autilingGroup: 0
  - uv:
      serializedVersion: 2
      x: 0
      y: 0.0625
      width: 0.0625
      height: 0.0625
    collData:
      vertices: []
      type: 0
    paramContainer:
      m_paramList: []
    prefabData:
      prefab: {fileID: 0}
      offset: {x: 0, y: 0, z: 0}
      offsetMode: 0
      showTileWithPrefab: 0
      showPrefabPreviewInTilePalette: 0
    autilingGroup: 0
  - uv:
      serializedVersion: 2
      x: 0.0625
      y: 0.0625
      width: 0.0625
      height: 0.0625
    collData:
      vertices: []
      type: 0
    paramContainer:
      m_paramList: []
    prefabData:
      prefab: {fileID: 0}
      offset: {x: 0, y: 0, z: 0}
      offsetMode: 0
      showTileWithPrefab: 0
      showPrefabPreviewInTilePalette: 0
    autilingGroup: 0
  - uv:
      serializedVersion: 2
      x: 0.125
      y: 0.0625
      width: 0.0625
      height: 0.0625
    collData:
      vertices: []
      type: 0
    paramContainer:
      m_paramList: []
    prefabData:
      prefab: {fileID: 0}
      offset: {x: 0, y: 0, z: 0}
      offsetMode: 0
      showTileWithPrefab: 0
      showPrefabPreviewInTilePalette: 0
    autilingGroup: 0
  - uv:
      serializedVersion: 2
      x: 0.1875
      y: 0.0625
      width: 0.0625
      height: 0.0625
    collData:
      vertices: []
      type: 0
    paramContainer:
      m_paramList: []
    prefabData:
      prefab: {fileID: 0}
      offset: {x: 0, y: 0, z: 0}
      offsetMode: 0
      showTileWithPrefab: 0
      showPrefabPreviewInTilePalette: 0
    autilingGroup: 0
  - uv:
      serializedVersion: 2
      x: 0.25
      y: 0.0625
      width: 0.0625
      height: 0.0625
    collData:
      vertices: []
      type: 0
    paramContainer:
      m_paramList: []
    prefabData:
      prefab: {fileID: 0}
      offset: {x: 0, y: 0, z: 0}
      offsetMode: 0
      showTileWithPrefab: 0
      showPrefabPreviewInTilePalette: 0
    autilingGroup: 0
  - uv:
      serializedVersion: 2
      x: 0.3125
      y: 0.0625
      width: 0.0625
      height: 0.0625
    collData:
      vertices: []
      type: 0
    paramContainer:
      m_paramList: []
    prefabData:
      prefab: {fileID: 0}
      offset: {x: 0, y: 0, z: 0}
      offsetMode: 0
      showTileWithPrefab: 0
      showPrefabPreviewInTilePalette: 0
    autilingGroup: 0
  - uv:
      serializedVersion: 2
      x: 0.375
      y: 0.0625
      width: 0.0625
      height: 0.0625
    collData:
      vertices: []
      type: 0
    paramContainer:
      m_paramList: []
    prefabData:
      prefab: {fileID: 0}
      offset: {x: 0, y: 0, z: 0}
      offsetMode: 0
      showTileWithPrefab: 0
      showPrefabPreviewInTilePalette: 0
    autilingGroup: 0
  - uv:
      serializedVersion: 2
      x: 0.4375
      y: 0.0625
      width: 0.0625
      height: 0.0625
    collData:
      vertices: []
      type: 0
    paramContainer:
      m_paramList: []
    prefabData:
      prefab: {fileID: 0}
      offset: {x: 0, y: 0, z: 0}
      offsetMode: 0
      showTileWithPrefab: 0
      showPrefabPreviewInTilePalette: 0
    autilingGroup: 0
  - uv:
      serializedVersion: 2
      x: 0.5
      y: 0.0625
      width: 0.0625
      height: 0.0625
    collData:
      vertices: []
      type: 0
    paramContainer:
      m_paramList: []
    prefabData:
      prefab: {fileID: 0}
      offset: {x: 0, y: 0, z: 0}
      offsetMode: 0
      showTileWithPrefab: 0
      showPrefabPreviewInTilePalette: 0
    autilingGroup: 0
  - uv:
      serializedVersion: 2
      x: 0.5625
      y: 0.0625
      width: 0.0625
      height: 0.0625
    collData:
      vertices: []
      type: 0
    paramContainer:
      m_paramList: []
    prefabData:
      prefab: {fileID: 0}
      offset: {x: 0, y: 0, z: 0}
      offsetMode: 0
      showTileWithPrefab: 0
      showPrefabPreviewInTilePalette: 0
    autilingGroup: 0
  - uv:
      serializedVersion: 2
      x: 0.625
      y: 0.0625
      width: 0.0625
      height: 0.0625
    collData:
      vertices: []
      type: 0
    paramContainer:
      m_paramList: []
    prefabData:
      prefab: {fileID: 0}
      offset: {x: 0, y: 0, z: 0}
      offsetMode: 0
      showTileWithPrefab: 0
      showPrefabPreviewInTilePalette: 0
    autilingGroup: 0
  - uv:
      serializedVersion: 2
      x: 0.6875
      y: 0.0625
      width: 0.0625
      height: 0.0625
    collData:
      vertices: []
      type: 0
    paramContainer:
      m_paramList: []
    prefabData:
      prefab: {fileID: 0}
      offset: {x: 0, y: 0, z: 0}
      offsetMode: 0
      showTileWithPrefab: 0
      showPrefabPreviewInTilePalette: 0
    autilingGroup: 0
  - uv:
      serializedVersion: 2
      x: 0.75
      y: 0.0625
      width: 0.0625
      height: 0.0625
    collData:
      vertices: []
      type: 0
    paramContainer:
      m_paramList: []
    prefabData:
      prefab: {fileID: 0}
      offset: {x: 0, y: 0, z: 0}
      offsetMode: 0
      showTileWithPrefab: 0
      showPrefabPreviewInTilePalette: 0
    autilingGroup: 0
  - uv:
      serializedVersion: 2
      x: 0.8125
      y: 0.0625
      width: 0.0625
      height: 0.0625
    collData:
      vertices: []
      type: 0
    paramContainer:
      m_paramList: []
    prefabData:
      prefab: {fileID: 0}
      offset: {x: 0, y: 0, z: 0}
      offsetMode: 0
      showTileWithPrefab: 0
      showPrefabPreviewInTilePalette: 0
    autilingGroup: 0
  - uv:
      serializedVersion: 2
      x: 0.875
      y: 0.0625
      width: 0.0625
      height: 0.0625
    collData:
      vertices: []
      type: 0
    paramContainer:
      m_paramList: []
    prefabData:
      prefab: {fileID: 0}
      offset: {x: 0, y: 0, z: 0}
      offsetMode: 0
      showTileWithPrefab: 0
      showPrefabPreviewInTilePalette: 0
    autilingGroup: 0
  - uv:
      serializedVersion: 2
      x: 0.9375
      y: 0.0625
      width: 0.0625
      height: 0.0625
    collData:
      vertices: []
      type: 0
    paramContainer:
      m_paramList: []
    prefabData:
      prefab: {fileID: 0}
      offset: {x: 0, y: 0, z: 0}
      offsetMode: 0
      showTileWithPrefab: 0
      showPrefabPreviewInTilePalette: 0
    autilingGroup: 0
  - uv:
      serializedVersion: 2
      x: 0
      y: 0
      width: 0.0625
      height: 0.0625
    collData:
      vertices: []
      type: 0
    paramContainer:
      m_paramList: []
    prefabData:
      prefab: {fileID: 0}
      offset: {x: 0, y: 0, z: 0}
      offsetMode: 0
      showTileWithPrefab: 0
      showPrefabPreviewInTilePalette: 0
    autilingGroup: 0
  - uv:
      serializedVersion: 2
      x: 0.0625
      y: 0
      width: 0.0625
      height: 0.0625
    collData:
      vertices: []
      type: 0
    paramContainer:
      m_paramList: []
    prefabData:
      prefab: {fileID: 0}
      offset: {x: 0, y: 0, z: 0}
      offsetMode: 0
      showTileWithPrefab: 0
      showPrefabPreviewInTilePalette: 0
    autilingGroup: 0
  - uv:
      serializedVersion: 2
      x: 0.125
      y: 0
      width: 0.0625
      height: 0.0625
    collData:
      vertices: []
      type: 0
    paramContainer:
      m_paramList: []
    prefabData:
      prefab: {fileID: 0}
      offset: {x: 0, y: 0, z: 0}
      offsetMode: 0
      showTileWithPrefab: 0
      showPrefabPreviewInTilePalette: 0
    autilingGroup: 0
  - uv:
      serializedVersion: 2
      x: 0.1875
      y: 0
      width: 0.0625
      height: 0.0625
    collData:
      vertices: []
      type: 0
    paramContainer:
      m_paramList: []
    prefabData:
      prefab: {fileID: 0}
      offset: {x: 0, y: 0, z: 0}
      offsetMode: 0
      showTileWithPrefab: 0
      showPrefabPreviewInTilePalette: 0
    autilingGroup: 0
  - uv:
      serializedVersion: 2
      x: 0.25
      y: 0
      width: 0.0625
      height: 0.0625
    collData:
      vertices: []
      type: 0
    paramContainer:
      m_paramList: []
    prefabData:
      prefab: {fileID: 0}
      offset: {x: 0, y: 0, z: 0}
      offsetMode: 0
      showTileWithPrefab: 0
      showPrefabPreviewInTilePalette: 0
    autilingGroup: 0
  - uv:
      serializedVersion: 2
      x: 0.3125
      y: 0
      width: 0.0625
      height: 0.0625
    collData:
      vertices: []
      type: 0
    paramContainer:
      m_paramList: []
    prefabData:
      prefab: {fileID: 0}
      offset: {x: 0, y: 0, z: 0}
      offsetMode: 0
      showTileWithPrefab: 0
      showPrefabPreviewInTilePalette: 0
    autilingGroup: 0
  - uv:
      serializedVersion: 2
      x: 0.375
      y: 0
      width: 0.0625
      height: 0.0625
    collData:
      vertices: []
      type: 0
    paramContainer:
      m_paramList: []
    prefabData:
      prefab: {fileID: 0}
      offset: {x: 0, y: 0, z: 0}
      offsetMode: 0
      showTileWithPrefab: 0
      showPrefabPreviewInTilePalette: 0
    autilingGroup: 0
  - uv:
      serializedVersion: 2
      x: 0.4375
      y: 0
      width: 0.0625
      height: 0.0625
    collData:
      vertices: []
      type: 0
    paramContainer:
      m_paramList: []
    prefabData:
      prefab: {fileID: 0}
      offset: {x: 0, y: 0, z: 0}
      offsetMode: 0
      showTileWithPrefab: 0
      showPrefabPreviewInTilePalette: 0
    autilingGroup: 0
  - uv:
      serializedVersion: 2
      x: 0.5
      y: 0
      width: 0.0625
      height: 0.0625
    collData:
      vertices: []
      type: 0
    paramContainer:
      m_paramList: []
    prefabData:
      prefab: {fileID: 0}
      offset: {x: 0, y: 0, z: 0}
      offsetMode: 0
      showTileWithPrefab: 0
      showPrefabPreviewInTilePalette: 0
    autilingGroup: 0
  - uv:
      serializedVersion: 2
      x: 0.5625
      y: 0
      width: 0.0625
      height: 0.0625
    collData:
      vertices: []
      type: 0
    paramContainer:
      m_paramList: []
    prefabData:
      prefab: {fileID: 0}
      offset: {x: 0, y: 0, z: 0}
      offsetMode: 0
      showTileWithPrefab: 0
      showPrefabPreviewInTilePalette: 0
    autilingGroup: 0
  - uv:
      serializedVersion: 2
      x: 0.625
      y: 0
      width: 0.0625
      height: 0.0625
    collData:
      vertices: []
      type: 0
    paramContainer:
      m_paramList: []
    prefabData:
      prefab: {fileID: 0}
      offset: {x: 0, y: 0, z: 0}
      offsetMode: 0
      showTileWithPrefab: 0
      showPrefabPreviewInTilePalette: 0
    autilingGroup: 0
  - uv:
      serializedVersion: 2
      x: 0.6875
      y: 0
      width: 0.0625
      height: 0.0625
    collData:
      vertices: []
      type: 0
    paramContainer:
      m_paramList: []
    prefabData:
      prefab: {fileID: 0}
      offset: {x: 0, y: 0, z: 0}
      offsetMode: 0
      showTileWithPrefab: 0
      showPrefabPreviewInTilePalette: 0
    autilingGroup: 0
  - uv:
      serializedVersion: 2
      x: 0.75
      y: 0
      width: 0.0625
      height: 0.0625
    collData:
      vertices: []
      type: 0
    paramContainer:
      m_paramList: []
    prefabData:
      prefab: {fileID: 0}
      offset: {x: 0, y: 0, z: 0}
      offsetMode: 0
      showTileWithPrefab: 0
      showPrefabPreviewInTilePalette: 0
    autilingGroup: 0
  - uv:
      serializedVersion: 2
      x: 0.8125
      y: 0
      width: 0.0625
      height: 0.0625
    collData:
      vertices: []
      type: 0
    paramContainer:
      m_paramList: []
    prefabData:
      prefab: {fileID: 0}
      offset: {x: 0, y: 0, z: 0}
      offsetMode: 0
      showTileWithPrefab: 0
      showPrefabPreviewInTilePalette: 0
    autilingGroup: 0
  - uv:
      serializedVersion: 2
      x: 0.875
      y: 0
      width: 0.0625
      height: 0.0625
    collData:
      vertices: []
      type: 0
    paramContainer:
      m_paramList: []
    prefabData:
      prefab: {fileID: 0}
      offset: {x: 0, y: 0, z: 0}
      offsetMode: 0
      showTileWithPrefab: 0
      showPrefabPreviewInTilePalette: 0
    autilingGroup: 0
  - uv:
      serializedVersion: 2
      x: 0.9375
      y: 0
      width: 0.0625
      height: 0.0625
    collData:
      vertices: []
      type: 0
    paramContainer:
      m_paramList: []
    prefabData:
      prefab: {fileID: 0}
      offset: {x: 0, y: 0, z: 0}
      offsetMode: 0
      showTileWithPrefab: 0
      showPrefabPreviewInTilePalette: 0
    autilingGroup: 0
  m_pixelsPerUnit: 32
  m_brushGroupNames:
  - Default
  - 
  - 
  - 
  - 
  - 
  - 
  - 
  - 
  - 
  - 
  - 
  - 
  - 
  - 
  - 
  - 
  - 
  - 
  - 
  - 
  - 
  - 
  - 
  - 
  - 
  - 
  - 
  - 
  - 
  - 
  - 
  m_brushGroupAutotilingMatrix: 01000000020000000400000008000000100000002000000040000000800000000001000000020000000400000008000000100000002000000040000000800000000001000000020000000400000008000000100000002000000040000000800000000001000000020000000400000008000000100000002000000040
  m_brushTypeMaskOptions: []
  m_brushTypeMask: -1
